{
  "types": [
    {
      "id":"51587729",
      "url":"https:\/\/collection.cooperhewitt.org\/types\/51587729\/",
      "name":"Marriage plate"
    },
    {
      "id":"51587713",
      "url":"https:\/\/collection.cooperhewitt.org\/types\/51587713\/",
      "name":"Open salt"
    },
    {
      "id":"51587705",
      "url":"https:\/\/collection.cooperhewitt.org\/types\/51587705\/",
      "name":"Dish with lid and stand"
    },
    {
      "id":"51587697",
      "url":"https:\/\/collection.cooperhewitt.org\/types\/51587697\/",
      "name":"Infuser and lid"
    },
    {
      "id":"51587681",
      "url":"https:\/\/collection.cooperhewitt.org\/types\/51587681\/",
      "name":"Double-handled vase"
    },
    {
      "id":"51587679",
      "url":"https:\/\/collection.cooperhewitt.org\/types\/51587679\/",
      "name":"Scenic plaque"
    },
    {
      "id":"51587639",
      "url":"https:\/\/collection.cooperhewitt.org\/types\/51587639\/",
      "name":"Frame, case and photograph"
    },
    {
      "id":"51587549",
      "url":"https:\/\/collection.cooperhewitt.org\/types\/51587549\/",
      "name":"Lock with backplate, key"
    },
    {
      "id":"51587521",
      "url":"https:\/\/collection.cooperhewitt.org\/types\/51587521\/",
      "name":"Shellwork bouquet (coquillage)"
    },
    {
      "id":"51587465",
      "url":"https:\/\/collection.cooperhewitt.org\/types\/51587465\/",
      "name":"Desk scissors"
    },
    {
      "id":"51587439",
      "url":"https:\/\/collection.cooperhewitt.org\/types\/51587439\/",
      "name":"Five lamp shades"
    },
    {
      "id":"51587269",
      "url":"https:\/\/collection.cooperhewitt.org\/types\/51587269\/",
      "name":"Pair of tables"
    },
    {
      "id":"51586431",
      "url":"https:\/\/collection.cooperhewitt.org\/types\/51586431\/",
      "name":"Lotus-shaped cup"
    },
    {
      "id":"51586385",
      "url":"https:\/\/collection.cooperhewitt.org\/types\/51586385\/",
      "name":"Figure and lid"
    },
    {
      "id":"51586369",
      "url":"https:\/\/collection.cooperhewitt.org\/types\/51586369\/",
      "name":"Table clock"
    },
    {
      "id":"51586331",
      "url":"https:\/\/collection.cooperhewitt.org\/types\/51586331\/",
      "name":"Standing cup and lid"
    },
    {
      "id":"51586271",
      "url":"https:\/\/collection.cooperhewitt.org\/types\/51586271\/",
      "name":"Creamer and Lid"
    },
    {
      "id":"51586267",
      "url":"https:\/\/collection.cooperhewitt.org\/types\/51586267\/",
      "name":"Walking stick handle"
    },
    {
      "id":"51586231",
      "url":"https:\/\/collection.cooperhewitt.org\/types\/51586231\/",
      "name":"Dish with lid"
    },
    {
      "id":"51586213",
      "url":"https:\/\/collection.cooperhewitt.org\/types\/51586213\/",
      "name":"Kettle and lid on stand with lamp and lid"
    },
    {
      "id":"51586189",
      "url":"https:\/\/collection.cooperhewitt.org\/types\/51586189\/",
      "name":"Panel and frame"
    },
    {
      "id":"51586183",
      "url":"https:\/\/collection.cooperhewitt.org\/types\/51586183\/",
      "name":"Bonbon dish"
    },
    {
      "id":"51586179",
      "url":"https:\/\/collection.cooperhewitt.org\/types\/51586179\/",
      "name":"Lock and hinge"
    },
    {
      "id":"51586177",
      "url":"https:\/\/collection.cooperhewitt.org\/types\/51586177\/",
      "name":"Architect's table"
    },
    {
      "id":"51586143",
      "url":"https:\/\/collection.cooperhewitt.org\/types\/51586143\/",
      "name":"Ciborium with lid"
    },
    {
      "id":"51585655",
      "url":"https:\/\/collection.cooperhewitt.org\/types\/51585655\/",
      "name":"Set of collar, fichu and others"
    },
    {
      "id":"51585323",
      "url":"https:\/\/collection.cooperhewitt.org\/types\/51585323\/",
      "name":"Wine Glass Rinser"
    },
    {
      "id":"51585319",
      "url":"https:\/\/collection.cooperhewitt.org\/types\/51585319\/",
      "name":"Tureen, lid, and stand"
    },
    {
      "id":"51585313",
      "url":"https:\/\/collection.cooperhewitt.org\/types\/51585313\/",
      "name":"Bulb pot and lid"
    },
    {
      "id":"51585213",
      "url":"https:\/\/collection.cooperhewitt.org\/types\/51585213\/",
      "name":"Cope, hood and orphrey"
    },
    {
      "id":"51585161",
      "url":"https:\/\/collection.cooperhewitt.org\/types\/51585161\/",
      "name":"Inkwell stand and lid"
    },
    {
      "id":"51585155",
      "url":"https:\/\/collection.cooperhewitt.org\/types\/51585155\/",
      "name":"Man's suit trousers"
    },
    {
      "id":"51585151",
      "url":"https:\/\/collection.cooperhewitt.org\/types\/51585151\/",
      "name":"Horse trappings"
    },
    {
      "id":"51585081",
      "url":"https:\/\/collection.cooperhewitt.org\/types\/51585081\/",
      "name":"Pull - rosettes (1 of 2)"
    },
    {
      "id":"51585069",
      "url":"https:\/\/collection.cooperhewitt.org\/types\/51585069\/",
      "name":"Hanging wall font and frame"
    },
    {
      "id":"51551431",
      "url":"https:\/\/collection.cooperhewitt.org\/types\/51551431\/",
      "name":"Thread"
    },
    {
      "id":"51551277",
      "url":"https:\/\/collection.cooperhewitt.org\/types\/51551277\/",
      "name":"Sundial and Compass"
    },
    {
      "id":"51510661",
      "url":"https:\/\/collection.cooperhewitt.org\/types\/51510661\/",
      "name":"Figure of a Dancer"
    },
    {
      "id":"51497741",
      "url":"https:\/\/collection.cooperhewitt.org\/types\/51497741\/",
      "name":"Coat rack"
    },
    {
      "id":"51497735",
      "url":"https:\/\/collection.cooperhewitt.org\/types\/51497735\/",
      "name":"Vacuum"
    },
    {
      "id":"51496795",
      "url":"https:\/\/collection.cooperhewitt.org\/types\/51496795\/",
      "name":"Chromolithographic print"
    },
    {
      "id":"51496613",
      "url":"https:\/\/collection.cooperhewitt.org\/types\/51496613\/",
      "name":"Hexagons"
    },
    {
      "id":"51496341",
      "url":"https:\/\/collection.cooperhewitt.org\/types\/51496341\/",
      "name":"Scarf end"
    },
    {
      "id":"35520987",
      "url":"https:\/\/collection.cooperhewitt.org\/types\/35520987\/",
      "name":"Software and Source Code"
    },
    {
      "id":"35520533",
      "url":"https:\/\/collection.cooperhewitt.org\/types\/35520533\/",
      "name":"Halibut hook"
    },
    {
      "id":"35520509",
      "url":"https:\/\/collection.cooperhewitt.org\/types\/35520509\/",
      "name":"Octopus lure"
    },
    {
      "id":"35520479",
      "url":"https:\/\/collection.cooperhewitt.org\/types\/35520479\/",
      "name":"Spade blade"
    },
    {
      "id":"35520473",
      "url":"https:\/\/collection.cooperhewitt.org\/types\/35520473\/",
      "name":"Stick navigation chart"
    },
    {
      "id":"35520391",
      "url":"https:\/\/collection.cooperhewitt.org\/types\/35520391\/",
      "name":"Clovis point"
    },
    {
      "id":"35520389",
      "url":"https:\/\/collection.cooperhewitt.org\/types\/35520389\/",
      "name":"Protractor"
    },
    {
      "id":"35520379",
      "url":"https:\/\/collection.cooperhewitt.org\/types\/35520379\/",
      "name":"Spencer Microscope"
    },
    {
      "id":"35520371",
      "url":"https:\/\/collection.cooperhewitt.org\/types\/35520371\/",
      "name":"Armband"
    },
    {
      "id":"35520359",
      "url":"https:\/\/collection.cooperhewitt.org\/types\/35520359\/",
      "name":"Model of hyperbolic space"
    },
    {
      "id":"35520311",
      "url":"https:\/\/collection.cooperhewitt.org\/types\/35520311\/",
      "name":"Travel iron"
    },
    {
      "id":"35520041",
      "url":"https:\/\/collection.cooperhewitt.org\/types\/35520041\/",
      "name":"Expanding bookend"
    },
    {
      "id":"35519997",
      "url":"https:\/\/collection.cooperhewitt.org\/types\/35519997\/",
      "name":"Figure of a poodle"
    },
    {
      "id":"35519923",
      "url":"https:\/\/collection.cooperhewitt.org\/types\/35519923\/",
      "name":"Cocktail ball and tray"
    },
    {
      "id":"35519919",
      "url":"https:\/\/collection.cooperhewitt.org\/types\/35519919\/",
      "name":"Butter dish with fork"
    },
    {
      "id":"35519915",
      "url":"https:\/\/collection.cooperhewitt.org\/types\/35519915\/",
      "name":"Cocktail shaker and stirer"
    },
    {
      "id":"35519909",
      "url":"https:\/\/collection.cooperhewitt.org\/types\/35519909\/",
      "name":"Ice bowl and tongs"
    },
    {
      "id":"35519641",
      "url":"https:\/\/collection.cooperhewitt.org\/types\/35519641\/",
      "name":"Squares"
    },
    {
      "id":"35519537",
      "url":"https:\/\/collection.cooperhewitt.org\/types\/35519537\/",
      "name":"Steel display kit"
    },
    {
      "id":"35519353",
      "url":"https:\/\/collection.cooperhewitt.org\/types\/35519353\/",
      "name":"Long sarong"
    },
    {
      "id":"35519311",
      "url":"https:\/\/collection.cooperhewitt.org\/types\/35519311\/",
      "name":"Ship cloth (palepai)"
    },
    {
      "id":"35519249",
      "url":"https:\/\/collection.cooperhewitt.org\/types\/35519249\/",
      "name":"Shoulder cloth (selendang)"
    },
    {
      "id":"35519239",
      "url":"https:\/\/collection.cooperhewitt.org\/types\/35519239\/",
      "name":"Padlock and key"
    },
    {
      "id":"35519213",
      "url":"https:\/\/collection.cooperhewitt.org\/types\/35519213\/",
      "name":"Ceremonial cloth (kamben geringsing)"
    },
    {
      "id":"35519183",
      "url":"https:\/\/collection.cooperhewitt.org\/types\/35519183\/",
      "name":"Sample for a window blind"
    },
    {
      "id":"35519117",
      "url":"https:\/\/collection.cooperhewitt.org\/types\/35519117\/",
      "name":"Altar Set"
    },
    {
      "id":"35518951",
      "url":"https:\/\/collection.cooperhewitt.org\/types\/35518951\/",
      "name":"Man's wrapper (hinggi)"
    },
    {
      "id":"35518949",
      "url":"https:\/\/collection.cooperhewitt.org\/types\/35518949\/",
      "name":"Sarong (kain songket)"
    },
    {
      "id":"35518901",
      "url":"https:\/\/collection.cooperhewitt.org\/types\/35518901\/",
      "name":"Circle"
    },
    {
      "id":"35518897",
      "url":"https:\/\/collection.cooperhewitt.org\/types\/35518897\/",
      "name":"Stereograph: French Broad River"
    },
    {
      "id":"35518895",
      "url":"https:\/\/collection.cooperhewitt.org\/types\/35518895\/",
      "name":"Stereograph: View on the French Broad River, near Warm Springs"
    },
    {
      "id":"35518893",
      "url":"https:\/\/collection.cooperhewitt.org\/types\/35518893\/",
      "name":"Stereograph: Lover's leap on the French Broad River"
    },
    {
      "id":"35518889",
      "url":"https:\/\/collection.cooperhewitt.org\/types\/35518889\/",
      "name":"Stereograph: Group, \"Uncle Toby and Widow Madam\""
    },
    {
      "id":"35518885",
      "url":"https:\/\/collection.cooperhewitt.org\/types\/35518885\/",
      "name":"Stereograph: Interior of Alcazar Palace, Seville, Spain"
    },
    {
      "id":"35518803",
      "url":"https:\/\/collection.cooperhewitt.org\/types\/35518803\/",
      "name":"Tapes"
    },
    {
      "id":"35518685",
      "url":"https:\/\/collection.cooperhewitt.org\/types\/35518685\/",
      "name":"Rank Badge (buzi)"
    },
    {
      "id":"35474849",
      "url":"https:\/\/collection.cooperhewitt.org\/types\/35474849\/",
      "name":"Tonometer"
    },
    {
      "id":"35474819",
      "url":"https:\/\/collection.cooperhewitt.org\/types\/35474819\/",
      "name":"Woman's short robe"
    },
    {
      "id":"35474817",
      "url":"https:\/\/collection.cooperhewitt.org\/types\/35474817\/",
      "name":"Boots for nurses uniform"
    },
    {
      "id":"35474815",
      "url":"https:\/\/collection.cooperhewitt.org\/types\/35474815\/",
      "name":"Nurse's jacket and pants"
    },
    {
      "id":"35474811",
      "url":"https:\/\/collection.cooperhewitt.org\/types\/35474811\/",
      "name":"Woman's short coat"
    },
    {
      "id":"35474809",
      "url":"https:\/\/collection.cooperhewitt.org\/types\/35474809\/",
      "name":"Woman's gown"
    },
    {
      "id":"35460743",
      "url":"https:\/\/collection.cooperhewitt.org\/types\/35460743\/",
      "name":"Controller of the Universe"
    },
    {
      "id":"35460721",
      "url":"https:\/\/collection.cooperhewitt.org\/types\/35460721\/",
      "name":"Whole Earth Catalog"
    },
    {
      "id":"35460635",
      "url":"https:\/\/collection.cooperhewitt.org\/types\/35460635\/",
      "name":"Prototype for Pocket Watch"
    },
    {
      "id":"35460627",
      "url":"https:\/\/collection.cooperhewitt.org\/types\/35460627\/",
      "name":"Shallow Bowl"
    },
    {
      "id":"35460583",
      "url":"https:\/\/collection.cooperhewitt.org\/types\/35460583\/",
      "name":"Model of a Carriage"
    },
    {
      "id":"35460319",
      "url":"https:\/\/collection.cooperhewitt.org\/types\/35460319\/",
      "name":"Box clock"
    },
    {
      "id":"35460309",
      "url":"https:\/\/collection.cooperhewitt.org\/types\/35460309\/",
      "name":"Edison Lamp"
    },
    {
      "id":"35460305",
      "url":"https:\/\/collection.cooperhewitt.org\/types\/35460305\/",
      "name":"Ether inhaler"
    },
    {
      "id":"35460231",
      "url":"https:\/\/collection.cooperhewitt.org\/types\/35460231\/",
      "name":"Snow goggles"
    },
    {
      "id":"35460131",
      "url":"https:\/\/collection.cooperhewitt.org\/types\/35460131\/",
      "name":"Quipu"
    },
    {
      "id":"35460125",
      "url":"https:\/\/collection.cooperhewitt.org\/types\/35460125\/",
      "name":"Penicillin culture vessel"
    },
    {
      "id":"35460089",
      "url":"https:\/\/collection.cooperhewitt.org\/types\/35460089\/",
      "name":"Visual aids for eye testing"
    },
    {
      "id":"35460051",
      "url":"https:\/\/collection.cooperhewitt.org\/types\/35460051\/",
      "name":"Ophthalmoscope and case"
    },
    {
      "id":"35460041",
      "url":"https:\/\/collection.cooperhewitt.org\/types\/35460041\/",
      "name":"Child's tool chest"
    },
    {
      "id":"35460005",
      "url":"https:\/\/collection.cooperhewitt.org\/types\/35460005\/",
      "name":"Sidewall or ceiling"
    },
    {
      "id":"35459997",
      "url":"https:\/\/collection.cooperhewitt.org\/types\/35459997\/",
      "name":"Machine made tape for tape lace"
    },
    {
      "id":"35459989",
      "url":"https:\/\/collection.cooperhewitt.org\/types\/35459989\/",
      "name":"Unfinished handkerchief"
    },
    {
      "id":"35459983",
      "url":"https:\/\/collection.cooperhewitt.org\/types\/35459983\/",
      "name":"Tea cloth (fukusa)"
    },
    {
      "id":"35459941",
      "url":"https:\/\/collection.cooperhewitt.org\/types\/35459941\/",
      "name":"Child's kimono"
    },
    {
      "id":"35459885",
      "url":"https:\/\/collection.cooperhewitt.org\/types\/35459885\/",
      "name":"Covering for a chair seat"
    },
    {
      "id":"35459873",
      "url":"https:\/\/collection.cooperhewitt.org\/types\/35459873\/",
      "name":"Girdle fragment"
    },
    {
      "id":"35459871",
      "url":"https:\/\/collection.cooperhewitt.org\/types\/35459871\/",
      "name":"Pring"
    },
    {
      "id":"35457105",
      "url":"https:\/\/collection.cooperhewitt.org\/types\/35457105\/",
      "name":"Chairback"
    },
    {
      "id":"35456873",
      "url":"https:\/\/collection.cooperhewitt.org\/types\/35456873\/",
      "name":"Frieze panel"
    },
    {
      "id":"35456799",
      "url":"https:\/\/collection.cooperhewitt.org\/types\/35456799\/",
      "name":"Task light"
    },
    {
      "id":"35456759",
      "url":"https:\/\/collection.cooperhewitt.org\/types\/35456759\/",
      "name":"Gatefold LP Packaging"
    },
    {
      "id":"35456707",
      "url":"https:\/\/collection.cooperhewitt.org\/types\/35456707\/",
      "name":"Baby carrier (mei tai)"
    },
    {
      "id":"35456575",
      "url":"https:\/\/collection.cooperhewitt.org\/types\/35456575\/",
      "name":"Iron with accessories and box"
    },
    {
      "id":"35456405",
      "url":"https:\/\/collection.cooperhewitt.org\/types\/35456405\/",
      "name":"Waistcoat pockets"
    },
    {
      "id":"35456393",
      "url":"https:\/\/collection.cooperhewitt.org\/types\/35456393\/",
      "name":"Woven picture"
    },
    {
      "id":"35456383",
      "url":"https:\/\/collection.cooperhewitt.org\/types\/35456383\/",
      "name":"Pen tray and pen"
    },
    {
      "id":"35456325",
      "url":"https:\/\/collection.cooperhewitt.org\/types\/35456325\/",
      "name":"Child's stomacher"
    },
    {
      "id":"35456321",
      "url":"https:\/\/collection.cooperhewitt.org\/types\/35456321\/",
      "name":"Man's suit coat"
    },
    {
      "id":"35456263",
      "url":"https:\/\/collection.cooperhewitt.org\/types\/35456263\/",
      "name":"Dress yoke"
    },
    {
      "id":"35456225",
      "url":"https:\/\/collection.cooperhewitt.org\/types\/35456225\/",
      "name":"Border for handkerchief"
    },
    {
      "id":"35456219",
      "url":"https:\/\/collection.cooperhewitt.org\/types\/35456219\/",
      "name":"Fragment and ornaments"
    },
    {
      "id":"35352631",
      "url":"https:\/\/collection.cooperhewitt.org\/types\/35352631\/",
      "name":"Ornament panel"
    },
    {
      "id":"35351357",
      "url":"https:\/\/collection.cooperhewitt.org\/types\/35351357\/",
      "name":"Lamp shades"
    },
    {
      "id":"35308507",
      "url":"https:\/\/collection.cooperhewitt.org\/types\/35308507\/",
      "name":"Wall unit"
    },
    {
      "id":"35308481",
      "url":"https:\/\/collection.cooperhewitt.org\/types\/35308481\/",
      "name":"Puzzle glass"
    },
    {
      "id":"35308477",
      "url":"https:\/\/collection.cooperhewitt.org\/types\/35308477\/",
      "name":"Modular unit"
    },
    {
      "id":"35308045",
      "url":"https:\/\/collection.cooperhewitt.org\/types\/35308045\/",
      "name":"Compact Disk"
    },
    {
      "id":"35308023",
      "url":"https:\/\/collection.cooperhewitt.org\/types\/35308023\/",
      "name":"Peeler in packaging"
    },
    {
      "id":"35307997",
      "url":"https:\/\/collection.cooperhewitt.org\/types\/35307997\/",
      "name":"Carte-de-visites"
    },
    {
      "id":"35307993",
      "url":"https:\/\/collection.cooperhewitt.org\/types\/35307993\/",
      "name":"Caf\u00e9 au lait cup and saucer"
    },
    {
      "id":"35307989",
      "url":"https:\/\/collection.cooperhewitt.org\/types\/35307989\/",
      "name":"Telephone dialer"
    },
    {
      "id":"35307977",
      "url":"https:\/\/collection.cooperhewitt.org\/types\/35307977\/",
      "name":"Fruit Basket and Cover"
    },
    {
      "id":"35307843",
      "url":"https:\/\/collection.cooperhewitt.org\/types\/35307843\/",
      "name":"Rods"
    },
    {
      "id":"35307809",
      "url":"https:\/\/collection.cooperhewitt.org\/types\/35307809\/",
      "name":"Double Old Fashioned Tumbler"
    },
    {
      "id":"35307761",
      "url":"https:\/\/collection.cooperhewitt.org\/types\/35307761\/",
      "name":"Pendent medallion"
    },
    {
      "id":"35307757",
      "url":"https:\/\/collection.cooperhewitt.org\/types\/35307757\/",
      "name":"Sidewall with applied room illustration"
    },
    {
      "id":"35307545",
      "url":"https:\/\/collection.cooperhewitt.org\/types\/35307545\/",
      "name":"Table fan"
    },
    {
      "id":"35307543",
      "url":"https:\/\/collection.cooperhewitt.org\/types\/35307543\/",
      "name":"Rum Flagon"
    },
    {
      "id":"35307517",
      "url":"https:\/\/collection.cooperhewitt.org\/types\/35307517\/",
      "name":"Sample book cover"
    },
    {
      "id":"35307465",
      "url":"https:\/\/collection.cooperhewitt.org\/types\/35307465\/",
      "name":"Peep show viewer"
    },
    {
      "id":"35307463",
      "url":"https:\/\/collection.cooperhewitt.org\/types\/35307463\/",
      "name":"Film"
    },
    {
      "id":"35307377",
      "url":"https:\/\/collection.cooperhewitt.org\/types\/35307377\/",
      "name":"Jabot Brooch"
    },
    {
      "id":"35307285",
      "url":"https:\/\/collection.cooperhewitt.org\/types\/35307285\/",
      "name":"Lapel watch"
    },
    {
      "id":"35307281",
      "url":"https:\/\/collection.cooperhewitt.org\/types\/35307281\/",
      "name":"Wall panel system"
    },
    {
      "id":"35307139",
      "url":"https:\/\/collection.cooperhewitt.org\/types\/35307139\/",
      "name":"Powder compact"
    },
    {
      "id":"35307129",
      "url":"https:\/\/collection.cooperhewitt.org\/types\/35307129\/",
      "name":"Celery dish"
    },
    {
      "id":"35307125",
      "url":"https:\/\/collection.cooperhewitt.org\/types\/35307125\/",
      "name":"Bowl prototype"
    },
    {
      "id":"35307003",
      "url":"https:\/\/collection.cooperhewitt.org\/types\/35307003\/",
      "name":"Old Fashioned glass"
    },
    {
      "id":"35306999",
      "url":"https:\/\/collection.cooperhewitt.org\/types\/35306999\/",
      "name":"Article"
    },
    {
      "id":"35306981",
      "url":"https:\/\/collection.cooperhewitt.org\/types\/35306981\/",
      "name":"Pants"
    },
    {
      "id":"35306963",
      "url":"https:\/\/collection.cooperhewitt.org\/types\/35306963\/",
      "name":"Amethyst engraved tumbler"
    },
    {
      "id":"35306903",
      "url":"https:\/\/collection.cooperhewitt.org\/types\/35306903\/",
      "name":"Jug prototype"
    },
    {
      "id":"35306891",
      "url":"https:\/\/collection.cooperhewitt.org\/types\/35306891\/",
      "name":"Reticule"
    },
    {
      "id":"35306889",
      "url":"https:\/\/collection.cooperhewitt.org\/types\/35306889\/",
      "name":"Table of contents"
    },
    {
      "id":"35306885",
      "url":"https:\/\/collection.cooperhewitt.org\/types\/35306885\/",
      "name":"Circle cut-out"
    },
    {
      "id":"35306881",
      "url":"https:\/\/collection.cooperhewitt.org\/types\/35306881\/",
      "name":"Introduction page"
    },
    {
      "id":"35306877",
      "url":"https:\/\/collection.cooperhewitt.org\/types\/35306877\/",
      "name":"Calendar cover sheet"
    },
    {
      "id":"35306839",
      "url":"https:\/\/collection.cooperhewitt.org\/types\/35306839\/",
      "name":"Beaker glass"
    },
    {
      "id":"35306769",
      "url":"https:\/\/collection.cooperhewitt.org\/types\/35306769\/",
      "name":"Whiskey glass"
    },
    {
      "id":"35306755",
      "url":"https:\/\/collection.cooperhewitt.org\/types\/35306755\/",
      "name":"Personal digital assistant"
    },
    {
      "id":"35306597",
      "url":"https:\/\/collection.cooperhewitt.org\/types\/35306597\/",
      "name":"Punch glass"
    },
    {
      "id":"35306589",
      "url":"https:\/\/collection.cooperhewitt.org\/types\/35306589\/",
      "name":"Folding Bicycle"
    },
    {
      "id":"35306583",
      "url":"https:\/\/collection.cooperhewitt.org\/types\/35306583\/",
      "name":"Sweat Protector (koyori ase-hajiki)"
    },
    {
      "id":"35306581",
      "url":"https:\/\/collection.cooperhewitt.org\/types\/35306581\/",
      "name":"Rain cloak (kappa)"
    },
    {
      "id":"35306185",
      "url":"https:\/\/collection.cooperhewitt.org\/types\/35306185\/",
      "name":"Research memorandum"
    },
    {
      "id":"35306105",
      "url":"https:\/\/collection.cooperhewitt.org\/types\/35306105\/",
      "name":"Tumbler, amber"
    },
    {
      "id":"35306103",
      "url":"https:\/\/collection.cooperhewitt.org\/types\/35306103\/",
      "name":"Tumbler, amethyst"
    },
    {
      "id":"35306101",
      "url":"https:\/\/collection.cooperhewitt.org\/types\/35306101\/",
      "name":"Bedside bottle and drinking glass"
    },
    {
      "id":"35306085",
      "url":"https:\/\/collection.cooperhewitt.org\/types\/35306085\/",
      "name":"Water pitcher, pale blue"
    },
    {
      "id":"35306083",
      "url":"https:\/\/collection.cooperhewitt.org\/types\/35306083\/",
      "name":"Tumbler, opaline white"
    },
    {
      "id":"35306081",
      "url":"https:\/\/collection.cooperhewitt.org\/types\/35306081\/",
      "name":"Tumbler, black"
    },
    {
      "id":"35306079",
      "url":"https:\/\/collection.cooperhewitt.org\/types\/35306079\/",
      "name":"Decanter, small"
    },
    {
      "id":"35306077",
      "url":"https:\/\/collection.cooperhewitt.org\/types\/35306077\/",
      "name":"Balloon, amethyst"
    },
    {
      "id":"35306075",
      "url":"https:\/\/collection.cooperhewitt.org\/types\/35306075\/",
      "name":"Beer tumbler, amethyst"
    },
    {
      "id":"35306067",
      "url":"https:\/\/collection.cooperhewitt.org\/types\/35306067\/",
      "name":"Balloon, clear"
    },
    {
      "id":"35306051",
      "url":"https:\/\/collection.cooperhewitt.org\/types\/35306051\/",
      "name":"Small footed bowl"
    },
    {
      "id":"35306049",
      "url":"https:\/\/collection.cooperhewitt.org\/types\/35306049\/",
      "name":"Liqueur tumbler"
    },
    {
      "id":"35306043",
      "url":"https:\/\/collection.cooperhewitt.org\/types\/35306043\/",
      "name":"Flower bowl with lid"
    },
    {
      "id":"35306041",
      "url":"https:\/\/collection.cooperhewitt.org\/types\/35306041\/",
      "name":"Cognac goblet"
    },
    {
      "id":"35306039",
      "url":"https:\/\/collection.cooperhewitt.org\/types\/35306039\/",
      "name":"Finger bowl on stem"
    },
    {
      "id":"35306027",
      "url":"https:\/\/collection.cooperhewitt.org\/types\/35306027\/",
      "name":"Water glass (clear)"
    },
    {
      "id":"35306015",
      "url":"https:\/\/collection.cooperhewitt.org\/types\/35306015\/",
      "name":"Square box with lid"
    },
    {
      "id":"35306013",
      "url":"https:\/\/collection.cooperhewitt.org\/types\/35306013\/",
      "name":"Jardini\u00e8re (flower bowl)"
    },
    {
      "id":"35306011",
      "url":"https:\/\/collection.cooperhewitt.org\/types\/35306011\/",
      "name":"Small bowl\/beaker"
    },
    {
      "id":"35306009",
      "url":"https:\/\/collection.cooperhewitt.org\/types\/35306009\/",
      "name":"Small dish"
    },
    {
      "id":"35306007",
      "url":"https:\/\/collection.cooperhewitt.org\/types\/35306007\/",
      "name":"Small salt cellar"
    },
    {
      "id":"35305997",
      "url":"https:\/\/collection.cooperhewitt.org\/types\/35305997\/",
      "name":"Red wine pitcher with handle and stopper"
    },
    {
      "id":"35305993",
      "url":"https:\/\/collection.cooperhewitt.org\/types\/35305993\/",
      "name":"Red wine pitcher"
    },
    {
      "id":"35305987",
      "url":"https:\/\/collection.cooperhewitt.org\/types\/35305987\/",
      "name":"Plate to match under finger bowl"
    },
    {
      "id":"35305985",
      "url":"https:\/\/collection.cooperhewitt.org\/types\/35305985\/",
      "name":"White wine decanter with stopper"
    },
    {
      "id":"35305967",
      "url":"https:\/\/collection.cooperhewitt.org\/types\/35305967\/",
      "name":"Water pitcher with handle"
    },
    {
      "id":"35305959",
      "url":"https:\/\/collection.cooperhewitt.org\/types\/35305959\/",
      "name":"Rhine wine glass, green"
    },
    {
      "id":"35305751",
      "url":"https:\/\/collection.cooperhewitt.org\/types\/35305751\/",
      "name":"Hearing Aid"
    },
    {
      "id":"35305745",
      "url":"https:\/\/collection.cooperhewitt.org\/types\/35305745\/",
      "name":"Prototype for a computer"
    },
    {
      "id":"35305729",
      "url":"https:\/\/collection.cooperhewitt.org\/types\/35305729\/",
      "name":"Pitcher prototype (final)"
    },
    {
      "id":"35305727",
      "url":"https:\/\/collection.cooperhewitt.org\/types\/35305727\/",
      "name":"Pitcher prototype with proposed changes"
    },
    {
      "id":"35305723",
      "url":"https:\/\/collection.cooperhewitt.org\/types\/35305723\/",
      "name":"Coffepot prototype"
    },
    {
      "id":"35305721",
      "url":"https:\/\/collection.cooperhewitt.org\/types\/35305721\/",
      "name":"Coffeepot model with knob variants"
    },
    {
      "id":"35305719",
      "url":"https:\/\/collection.cooperhewitt.org\/types\/35305719\/",
      "name":"Coffeepot model"
    },
    {
      "id":"35305669",
      "url":"https:\/\/collection.cooperhewitt.org\/types\/35305669\/",
      "name":"Photomontage"
    },
    {
      "id":"35305537",
      "url":"https:\/\/collection.cooperhewitt.org\/types\/35305537\/",
      "name":"Magazine rack"
    },
    {
      "id":"35305527",
      "url":"https:\/\/collection.cooperhewitt.org\/types\/35305527\/",
      "name":"Soap"
    },
    {
      "id":"35305419",
      "url":"https:\/\/collection.cooperhewitt.org\/types\/35305419\/",
      "name":"Cake serving plate"
    },
    {
      "id":"35305411",
      "url":"https:\/\/collection.cooperhewitt.org\/types\/35305411\/",
      "name":"Sauce tureen"
    },
    {
      "id":"35305315",
      "url":"https:\/\/collection.cooperhewitt.org\/types\/35305315\/",
      "name":"Valance fragment"
    },
    {
      "id":"35305305",
      "url":"https:\/\/collection.cooperhewitt.org\/types\/35305305\/",
      "name":"Blade templates"
    },
    {
      "id":"35305297",
      "url":"https:\/\/collection.cooperhewitt.org\/types\/35305297\/",
      "name":"Serving fork model"
    },
    {
      "id":"35305293",
      "url":"https:\/\/collection.cooperhewitt.org\/types\/35305293\/",
      "name":"Spoon top"
    },
    {
      "id":"35305291",
      "url":"https:\/\/collection.cooperhewitt.org\/types\/35305291\/",
      "name":"Knife study model"
    },
    {
      "id":"35305283",
      "url":"https:\/\/collection.cooperhewitt.org\/types\/35305283\/",
      "name":"Models for Knobs"
    },
    {
      "id":"35305279",
      "url":"https:\/\/collection.cooperhewitt.org\/types\/35305279\/",
      "name":"Faucet Project"
    },
    {
      "id":"35305277",
      "url":"https:\/\/collection.cooperhewitt.org\/types\/35305277\/",
      "name":"Scarves by Vera Packages"
    },
    {
      "id":"35305255",
      "url":"https:\/\/collection.cooperhewitt.org\/types\/35305255\/",
      "name":"Steak Fork Boxes"
    },
    {
      "id":"35305253",
      "url":"https:\/\/collection.cooperhewitt.org\/types\/35305253\/",
      "name":"Stainless Cutlery Box"
    },
    {
      "id":"35305243",
      "url":"https:\/\/collection.cooperhewitt.org\/types\/35305243\/",
      "name":"Bedford Packaging"
    },
    {
      "id":"35305241",
      "url":"https:\/\/collection.cooperhewitt.org\/types\/35305241\/",
      "name":"Design 3 16 piece Starter Set Box"
    },
    {
      "id":"35305239",
      "url":"https:\/\/collection.cooperhewitt.org\/types\/35305239\/",
      "name":"Design 2 Packaging"
    },
    {
      "id":"35305235",
      "url":"https:\/\/collection.cooperhewitt.org\/types\/35305235\/",
      "name":"Model for a Lid"
    },
    {
      "id":"35305233",
      "url":"https:\/\/collection.cooperhewitt.org\/types\/35305233\/",
      "name":"Model for Salt Shaker"
    },
    {
      "id":"35305229",
      "url":"https:\/\/collection.cooperhewitt.org\/types\/35305229\/",
      "name":"Model of Hand!"
    },
    {
      "id":"35305225",
      "url":"https:\/\/collection.cooperhewitt.org\/types\/35305225\/",
      "name":"Model for Table!"
    },
    {
      "id":"35305221",
      "url":"https:\/\/collection.cooperhewitt.org\/types\/35305221\/",
      "name":"Model for a Chair Seat"
    },
    {
      "id":"35305219",
      "url":"https:\/\/collection.cooperhewitt.org\/types\/35305219\/",
      "name":"Model for a Chair"
    },
    {
      "id":"35305211",
      "url":"https:\/\/collection.cooperhewitt.org\/types\/35305211\/",
      "name":"Model for Upholstered Chair"
    },
    {
      "id":"35305207",
      "url":"https:\/\/collection.cooperhewitt.org\/types\/35305207\/",
      "name":"Binster"
    },
    {
      "id":"35305205",
      "url":"https:\/\/collection.cooperhewitt.org\/types\/35305205\/",
      "name":"model for tray"
    },
    {
      "id":"35305203",
      "url":"https:\/\/collection.cooperhewitt.org\/types\/35305203\/",
      "name":"Wireform basket prototype"
    },
    {
      "id":"35305201",
      "url":"https:\/\/collection.cooperhewitt.org\/types\/35305201\/",
      "name":"Pepper grinder"
    },
    {
      "id":"35305197",
      "url":"https:\/\/collection.cooperhewitt.org\/types\/35305197\/",
      "name":"Pipes and stands"
    },
    {
      "id":"35305195",
      "url":"https:\/\/collection.cooperhewitt.org\/types\/35305195\/",
      "name":"Alcoa Tree-Connecting Elements"
    },
    {
      "id":"35305187",
      "url":"https:\/\/collection.cooperhewitt.org\/types\/35305187\/",
      "name":"Lid and Vessel"
    },
    {
      "id":"35305183",
      "url":"https:\/\/collection.cooperhewitt.org\/types\/35305183\/",
      "name":"Model for Serving Platter"
    },
    {
      "id":"35305179",
      "url":"https:\/\/collection.cooperhewitt.org\/types\/35305179\/",
      "name":"Model for bowl"
    },
    {
      "id":"35305177",
      "url":"https:\/\/collection.cooperhewitt.org\/types\/35305177\/",
      "name":"Model for Bowl Lid"
    },
    {
      "id":"35305175",
      "url":"https:\/\/collection.cooperhewitt.org\/types\/35305175\/",
      "name":"Model for Bowl and Lid"
    },
    {
      "id":"35305171",
      "url":"https:\/\/collection.cooperhewitt.org\/types\/35305171\/",
      "name":"Model for Round Dish"
    },
    {
      "id":"35305169",
      "url":"https:\/\/collection.cooperhewitt.org\/types\/35305169\/",
      "name":"Model for Small Serving Dish"
    },
    {
      "id":"35305167",
      "url":"https:\/\/collection.cooperhewitt.org\/types\/35305167\/",
      "name":"Model for a Salt Shaker"
    },
    {
      "id":"35305165",
      "url":"https:\/\/collection.cooperhewitt.org\/types\/35305165\/",
      "name":"protoype for creamer"
    },
    {
      "id":"35305163",
      "url":"https:\/\/collection.cooperhewitt.org\/types\/35305163\/",
      "name":"model for creamer"
    },
    {
      "id":"35305161",
      "url":"https:\/\/collection.cooperhewitt.org\/types\/35305161\/",
      "name":"prototype for sugar server"
    },
    {
      "id":"35305159",
      "url":"https:\/\/collection.cooperhewitt.org\/types\/35305159\/",
      "name":"model for sugar server"
    },
    {
      "id":"35305149",
      "url":"https:\/\/collection.cooperhewitt.org\/types\/35305149\/",
      "name":"Model for a Small Pitcher"
    },
    {
      "id":"35305145",
      "url":"https:\/\/collection.cooperhewitt.org\/types\/35305145\/",
      "name":"Model block of wood for serving spoon"
    },
    {
      "id":"35305143",
      "url":"https:\/\/collection.cooperhewitt.org\/types\/35305143\/",
      "name":"Model block for gravy ladle"
    },
    {
      "id":"35305141",
      "url":"https:\/\/collection.cooperhewitt.org\/types\/35305141\/",
      "name":"Model block for gravy ladle or serving spoon"
    },
    {
      "id":"35305131",
      "url":"https:\/\/collection.cooperhewitt.org\/types\/35305131\/",
      "name":"Model for Cooking Fork"
    },
    {
      "id":"35305129",
      "url":"https:\/\/collection.cooperhewitt.org\/types\/35305129\/",
      "name":"Unidentified Fruit\/Dessert Knife"
    },
    {
      "id":"35305127",
      "url":"https:\/\/collection.cooperhewitt.org\/types\/35305127\/",
      "name":"Unidentified Dinner Knife"
    },
    {
      "id":"35305125",
      "url":"https:\/\/collection.cooperhewitt.org\/types\/35305125\/",
      "name":"Model for Unidentified Spoon"
    },
    {
      "id":"35305121",
      "url":"https:\/\/collection.cooperhewitt.org\/types\/35305121\/",
      "name":"Prototype for Spoon"
    },
    {
      "id":"35305117",
      "url":"https:\/\/collection.cooperhewitt.org\/types\/35305117\/",
      "name":"Prototype for Dinner Knife"
    },
    {
      "id":"35305111",
      "url":"https:\/\/collection.cooperhewitt.org\/types\/35305111\/",
      "name":"Model for Dinner Knife, unidentified"
    },
    {
      "id":"35305107",
      "url":"https:\/\/collection.cooperhewitt.org\/types\/35305107\/",
      "name":"Model for Unidentified Serving Spoon"
    },
    {
      "id":"35305105",
      "url":"https:\/\/collection.cooperhewitt.org\/types\/35305105\/",
      "name":"Model for Serving Spoon, unidentified"
    },
    {
      "id":"35305099",
      "url":"https:\/\/collection.cooperhewitt.org\/types\/35305099\/",
      "name":"Model for Unidentified Knife"
    },
    {
      "id":"35305097",
      "url":"https:\/\/collection.cooperhewitt.org\/types\/35305097\/",
      "name":"Model for Fork"
    },
    {
      "id":"35305091",
      "url":"https:\/\/collection.cooperhewitt.org\/types\/35305091\/",
      "name":"Model for Spatula"
    },
    {
      "id":"35305089",
      "url":"https:\/\/collection.cooperhewitt.org\/types\/35305089\/",
      "name":"Model for Serving Spoon"
    },
    {
      "id":"35305087",
      "url":"https:\/\/collection.cooperhewitt.org\/types\/35305087\/",
      "name":"Prototype for Serving Spoon"
    },
    {
      "id":"35305069",
      "url":"https:\/\/collection.cooperhewitt.org\/types\/35305069\/",
      "name":"Model for Cheese Knife"
    },
    {
      "id":"35305063",
      "url":"https:\/\/collection.cooperhewitt.org\/types\/35305063\/",
      "name":"Model for Carving Fork"
    },
    {
      "id":"35305061",
      "url":"https:\/\/collection.cooperhewitt.org\/types\/35305061\/",
      "name":"Model for Carver and Trimmer"
    },
    {
      "id":"35305057",
      "url":"https:\/\/collection.cooperhewitt.org\/types\/35305057\/",
      "name":"Carver\/Trimmer"
    },
    {
      "id":"35305055",
      "url":"https:\/\/collection.cooperhewitt.org\/types\/35305055\/",
      "name":"Carver-Trimmer"
    },
    {
      "id":"35305053",
      "url":"https:\/\/collection.cooperhewitt.org\/types\/35305053\/",
      "name":"Carver"
    },
    {
      "id":"35305049",
      "url":"https:\/\/collection.cooperhewitt.org\/types\/35305049\/",
      "name":"Protoype for 8\" Chef Knife"
    },
    {
      "id":"35305043",
      "url":"https:\/\/collection.cooperhewitt.org\/types\/35305043\/",
      "name":"6\" Utility Knife"
    },
    {
      "id":"35305041",
      "url":"https:\/\/collection.cooperhewitt.org\/types\/35305041\/",
      "name":"Utility Knife"
    },
    {
      "id":"35305037",
      "url":"https:\/\/collection.cooperhewitt.org\/types\/35305037\/",
      "name":"7\" Meat Knife"
    },
    {
      "id":"35305033",
      "url":"https:\/\/collection.cooperhewitt.org\/types\/35305033\/",
      "name":"Prototype for Canape Spreader"
    },
    {
      "id":"35305027",
      "url":"https:\/\/collection.cooperhewitt.org\/types\/35305027\/",
      "name":"Cake Serves"
    },
    {
      "id":"35305025",
      "url":"https:\/\/collection.cooperhewitt.org\/types\/35305025\/",
      "name":"Serving Knife with Serrated Edge"
    },
    {
      "id":"35305023",
      "url":"https:\/\/collection.cooperhewitt.org\/types\/35305023\/",
      "name":"Canape Spreader"
    },
    {
      "id":"35305019",
      "url":"https:\/\/collection.cooperhewitt.org\/types\/35305019\/",
      "name":"Model for Steak Fork"
    },
    {
      "id":"35305017",
      "url":"https:\/\/collection.cooperhewitt.org\/types\/35305017\/",
      "name":"Prototype for Ice Tea Spoon"
    },
    {
      "id":"35305015",
      "url":"https:\/\/collection.cooperhewitt.org\/types\/35305015\/",
      "name":"Prototype  for Bar Spoon"
    },
    {
      "id":"35305013",
      "url":"https:\/\/collection.cooperhewitt.org\/types\/35305013\/",
      "name":"Prototype for 3 in 1 Bar Tool"
    },
    {
      "id":"35305001",
      "url":"https:\/\/collection.cooperhewitt.org\/types\/35305001\/",
      "name":"Teaspoon Model"
    },
    {
      "id":"35304999",
      "url":"https:\/\/collection.cooperhewitt.org\/types\/35304999\/",
      "name":"Model for Butter Spreader"
    },
    {
      "id":"35304991",
      "url":"https:\/\/collection.cooperhewitt.org\/types\/35304991\/",
      "name":"Model for Salad Fork"
    },
    {
      "id":"35304989",
      "url":"https:\/\/collection.cooperhewitt.org\/types\/35304989\/",
      "name":"Prototype for Teaspoon"
    },
    {
      "id":"35304987",
      "url":"https:\/\/collection.cooperhewitt.org\/types\/35304987\/",
      "name":"Prototype for Dinner Fork"
    },
    {
      "id":"35304985",
      "url":"https:\/\/collection.cooperhewitt.org\/types\/35304985\/",
      "name":"Soup Spoons"
    },
    {
      "id":"35304983",
      "url":"https:\/\/collection.cooperhewitt.org\/types\/35304983\/",
      "name":"Serving salad fork"
    },
    {
      "id":"35304981",
      "url":"https:\/\/collection.cooperhewitt.org\/types\/35304981\/",
      "name":"Regular serving fork"
    },
    {
      "id":"35304979",
      "url":"https:\/\/collection.cooperhewitt.org\/types\/35304979\/",
      "name":"Ice tea spoon"
    },
    {
      "id":"35304977",
      "url":"https:\/\/collection.cooperhewitt.org\/types\/35304977\/",
      "name":"Soup spoon - mold"
    },
    {
      "id":"35304971",
      "url":"https:\/\/collection.cooperhewitt.org\/types\/35304971\/",
      "name":"Fish fork - mold"
    },
    {
      "id":"35304967",
      "url":"https:\/\/collection.cooperhewitt.org\/types\/35304967\/",
      "name":"Model 8"
    },
    {
      "id":"35304965",
      "url":"https:\/\/collection.cooperhewitt.org\/types\/35304965\/",
      "name":"Model 7"
    },
    {
      "id":"35304963",
      "url":"https:\/\/collection.cooperhewitt.org\/types\/35304963\/",
      "name":"Model 6"
    },
    {
      "id":"35304961",
      "url":"https:\/\/collection.cooperhewitt.org\/types\/35304961\/",
      "name":"Model 5"
    },
    {
      "id":"35304959",
      "url":"https:\/\/collection.cooperhewitt.org\/types\/35304959\/",
      "name":"Model 4"
    },
    {
      "id":"35304955",
      "url":"https:\/\/collection.cooperhewitt.org\/types\/35304955\/",
      "name":"Model 3"
    },
    {
      "id":"35304953",
      "url":"https:\/\/collection.cooperhewitt.org\/types\/35304953\/",
      "name":"Model 2"
    },
    {
      "id":"35304951",
      "url":"https:\/\/collection.cooperhewitt.org\/types\/35304951\/",
      "name":"Model 1"
    },
    {
      "id":"35304943",
      "url":"https:\/\/collection.cooperhewitt.org\/types\/35304943\/",
      "name":"Soupspoon"
    },
    {
      "id":"35304937",
      "url":"https:\/\/collection.cooperhewitt.org\/types\/35304937\/",
      "name":"Palisander"
    },
    {
      "id":"35304931",
      "url":"https:\/\/collection.cooperhewitt.org\/types\/35304931\/",
      "name":"Fork - \"Aztec\""
    },
    {
      "id":"35304927",
      "url":"https:\/\/collection.cooperhewitt.org\/types\/35304927\/",
      "name":"Small spoon"
    },
    {
      "id":"35304925",
      "url":"https:\/\/collection.cooperhewitt.org\/types\/35304925\/",
      "name":"Small cocktail fork"
    },
    {
      "id":"35304923",
      "url":"https:\/\/collection.cooperhewitt.org\/types\/35304923\/",
      "name":"Large salad serving spoon"
    },
    {
      "id":"35304917",
      "url":"https:\/\/collection.cooperhewitt.org\/types\/35304917\/",
      "name":"Gravy ladle- mold"
    },
    {
      "id":"35304915",
      "url":"https:\/\/collection.cooperhewitt.org\/types\/35304915\/",
      "name":"Serving spoon- mold"
    },
    {
      "id":"35304913",
      "url":"https:\/\/collection.cooperhewitt.org\/types\/35304913\/",
      "name":"Demitasse spoon- mold"
    },
    {
      "id":"35304911",
      "url":"https:\/\/collection.cooperhewitt.org\/types\/35304911\/",
      "name":"Iced beverage spoon- mold"
    },
    {
      "id":"35304909",
      "url":"https:\/\/collection.cooperhewitt.org\/types\/35304909\/",
      "name":"Teaspoon- mold"
    },
    {
      "id":"35304907",
      "url":"https:\/\/collection.cooperhewitt.org\/types\/35304907\/",
      "name":"Butter spreader- mold"
    },
    {
      "id":"35304901",
      "url":"https:\/\/collection.cooperhewitt.org\/types\/35304901\/",
      "name":"Coctail fork- mold"
    },
    {
      "id":"35304897",
      "url":"https:\/\/collection.cooperhewitt.org\/types\/35304897\/",
      "name":"Salad fork- mold"
    },
    {
      "id":"35304891",
      "url":"https:\/\/collection.cooperhewitt.org\/types\/35304891\/",
      "name":"Dinner knife - variant"
    },
    {
      "id":"35304877",
      "url":"https:\/\/collection.cooperhewitt.org\/types\/35304877\/",
      "name":"Small serving spoon"
    },
    {
      "id":"35304875",
      "url":"https:\/\/collection.cooperhewitt.org\/types\/35304875\/",
      "name":"Plaster mold for sugar spoon"
    },
    {
      "id":"35304873",
      "url":"https:\/\/collection.cooperhewitt.org\/types\/35304873\/",
      "name":"Model spoon"
    },
    {
      "id":"35304861",
      "url":"https:\/\/collection.cooperhewitt.org\/types\/35304861\/",
      "name":"Pastry cutter and server"
    },
    {
      "id":"35304835",
      "url":"https:\/\/collection.cooperhewitt.org\/types\/35304835\/",
      "name":"Asafo flag"
    },
    {
      "id":"35304775",
      "url":"https:\/\/collection.cooperhewitt.org\/types\/35304775\/",
      "name":"Meat slicer"
    },
    {
      "id":"35304727",
      "url":"https:\/\/collection.cooperhewitt.org\/types\/35304727\/",
      "name":"Kepenek (shepherd's cloak)"
    },
    {
      "id":"35304681",
      "url":"https:\/\/collection.cooperhewitt.org\/types\/35304681\/",
      "name":"Bodice fragment"
    },
    {
      "id":"35304677",
      "url":"https:\/\/collection.cooperhewitt.org\/types\/35304677\/",
      "name":"Skirt flounce"
    },
    {
      "id":"35304359",
      "url":"https:\/\/collection.cooperhewitt.org\/types\/35304359\/",
      "name":"Pair of shoe buckles"
    },
    {
      "id":"35304285",
      "url":"https:\/\/collection.cooperhewitt.org\/types\/35304285\/",
      "name":"Lapels"
    },
    {
      "id":"35304197",
      "url":"https:\/\/collection.cooperhewitt.org\/types\/35304197\/",
      "name":"Tea\/hot water urn"
    },
    {
      "id":"35304193",
      "url":"https:\/\/collection.cooperhewitt.org\/types\/35304193\/",
      "name":"Maufacturer's lace sample books"
    },
    {
      "id":"35304169",
      "url":"https:\/\/collection.cooperhewitt.org\/types\/35304169\/",
      "name":"Camel girth"
    },
    {
      "id":"35304161",
      "url":"https:\/\/collection.cooperhewitt.org\/types\/35304161\/",
      "name":"Loincloth"
    },
    {
      "id":"35304151",
      "url":"https:\/\/collection.cooperhewitt.org\/types\/35304151\/",
      "name":"Photo flash"
    },
    {
      "id":"35304135",
      "url":"https:\/\/collection.cooperhewitt.org\/types\/35304135\/",
      "name":"Pair of curtain panels"
    },
    {
      "id":"35304109",
      "url":"https:\/\/collection.cooperhewitt.org\/types\/35304109\/",
      "name":"Stool for the Norman Bar"
    },
    {
      "id":"35304089",
      "url":"https:\/\/collection.cooperhewitt.org\/types\/35304089\/",
      "name":"Covered tureen and stand"
    },
    {
      "id":"35303957",
      "url":"https:\/\/collection.cooperhewitt.org\/types\/35303957\/",
      "name":"Mantel clock"
    },
    {
      "id":"35303953",
      "url":"https:\/\/collection.cooperhewitt.org\/types\/35303953\/",
      "name":"Jug with lid"
    },
    {
      "id":"35303833",
      "url":"https:\/\/collection.cooperhewitt.org\/types\/35303833\/",
      "name":"Writing box"
    },
    {
      "id":"35303745",
      "url":"https:\/\/collection.cooperhewitt.org\/types\/35303745\/",
      "name":"Window blinds"
    },
    {
      "id":"35303743",
      "url":"https:\/\/collection.cooperhewitt.org\/types\/35303743\/",
      "name":"Partition textile"
    },
    {
      "id":"35303741",
      "url":"https:\/\/collection.cooperhewitt.org\/types\/35303741\/",
      "name":"Pair of breeches buckles"
    },
    {
      "id":"35303561",
      "url":"https:\/\/collection.cooperhewitt.org\/types\/35303561\/",
      "name":"Sail"
    },
    {
      "id":"35303555",
      "url":"https:\/\/collection.cooperhewitt.org\/types\/35303555\/",
      "name":"Baby spoon"
    },
    {
      "id":"35303551",
      "url":"https:\/\/collection.cooperhewitt.org\/types\/35303551\/",
      "name":"Jam spoon"
    },
    {
      "id":"35303549",
      "url":"https:\/\/collection.cooperhewitt.org\/types\/35303549\/",
      "name":"Relish fork"
    },
    {
      "id":"35303547",
      "url":"https:\/\/collection.cooperhewitt.org\/types\/35303547\/",
      "name":"Baby fork-spoon"
    },
    {
      "id":"35303545",
      "url":"https:\/\/collection.cooperhewitt.org\/types\/35303545\/",
      "name":"Cake fork"
    },
    {
      "id":"35303295",
      "url":"https:\/\/collection.cooperhewitt.org\/types\/35303295\/",
      "name":"Case and cap"
    },
    {
      "id":"35303275",
      "url":"https:\/\/collection.cooperhewitt.org\/types\/35303275\/",
      "name":"Pasta server"
    },
    {
      "id":"35303273",
      "url":"https:\/\/collection.cooperhewitt.org\/types\/35303273\/",
      "name":"Lunch knife"
    },
    {
      "id":"35303271",
      "url":"https:\/\/collection.cooperhewitt.org\/types\/35303271\/",
      "name":"Lunch fork"
    },
    {
      "id":"35303259",
      "url":"https:\/\/collection.cooperhewitt.org\/types\/35303259\/",
      "name":"End table"
    },
    {
      "id":"35302969",
      "url":"https:\/\/collection.cooperhewitt.org\/types\/35302969\/",
      "name":"vases"
    },
    {
      "id":"35302915",
      "url":"https:\/\/collection.cooperhewitt.org\/types\/35302915\/",
      "name":"Button display card"
    },
    {
      "id":"35302885",
      "url":"https:\/\/collection.cooperhewitt.org\/types\/35302885\/",
      "name":"Task chair"
    },
    {
      "id":"35302881",
      "url":"https:\/\/collection.cooperhewitt.org\/types\/35302881\/",
      "name":"Sarita"
    },
    {
      "id":"35302683",
      "url":"https:\/\/collection.cooperhewitt.org\/types\/35302683\/",
      "name":"Bread plate"
    },
    {
      "id":"35302621",
      "url":"https:\/\/collection.cooperhewitt.org\/types\/35302621\/",
      "name":"tableware"
    },
    {
      "id":"35302613",
      "url":"https:\/\/collection.cooperhewitt.org\/types\/35302613\/",
      "name":"Animation"
    },
    {
      "id":"35302607",
      "url":"https:\/\/collection.cooperhewitt.org\/types\/35302607\/",
      "name":"Pickle fork"
    },
    {
      "id":"35302431",
      "url":"https:\/\/collection.cooperhewitt.org\/types\/35302431\/",
      "name":"Bell Tower Model"
    },
    {
      "id":"35302425",
      "url":"https:\/\/collection.cooperhewitt.org\/types\/35302425\/",
      "name":"Pulpit model"
    },
    {
      "id":"35302231",
      "url":"https:\/\/collection.cooperhewitt.org\/types\/35302231\/",
      "name":"Kimono textile"
    },
    {
      "id":"35302193",
      "url":"https:\/\/collection.cooperhewitt.org\/types\/35302193\/",
      "name":"prototype spoon"
    },
    {
      "id":"35302189",
      "url":"https:\/\/collection.cooperhewitt.org\/types\/35302189\/",
      "name":"Prototype fork"
    },
    {
      "id":"35302153",
      "url":"https:\/\/collection.cooperhewitt.org\/types\/35302153\/",
      "name":"Evening Coat"
    },
    {
      "id":"35302089",
      "url":"https:\/\/collection.cooperhewitt.org\/types\/35302089\/",
      "name":"Overskirt"
    },
    {
      "id":"35301999",
      "url":"https:\/\/collection.cooperhewitt.org\/types\/35301999\/",
      "name":"Walking stick"
    },
    {
      "id":"35301975",
      "url":"https:\/\/collection.cooperhewitt.org\/types\/35301975\/",
      "name":"Press mat for industrial lamination process"
    },
    {
      "id":"35301973",
      "url":"https:\/\/collection.cooperhewitt.org\/types\/35301973\/",
      "name":"Bobbinet"
    },
    {
      "id":"35301873",
      "url":"https:\/\/collection.cooperhewitt.org\/types\/35301873\/",
      "name":"Cappucino spoon"
    },
    {
      "id":"35301829",
      "url":"https:\/\/collection.cooperhewitt.org\/types\/35301829\/",
      "name":"Marrow scoop"
    },
    {
      "id":"35301795",
      "url":"https:\/\/collection.cooperhewitt.org\/types\/35301795\/",
      "name":"Galloon"
    },
    {
      "id":"35301783",
      "url":"https:\/\/collection.cooperhewitt.org\/types\/35301783\/",
      "name":"Fish slice"
    },
    {
      "id":"35301773",
      "url":"https:\/\/collection.cooperhewitt.org\/types\/35301773\/",
      "name":"Hoytether\u2122 tension member for space propulsion applications, prototype"
    },
    {
      "id":"35301743",
      "url":"https:\/\/collection.cooperhewitt.org\/types\/35301743\/",
      "name":"Chest for stereo"
    },
    {
      "id":"35301721",
      "url":"https:\/\/collection.cooperhewitt.org\/types\/35301721\/",
      "name":"Mosen"
    },
    {
      "id":"35301479",
      "url":"https:\/\/collection.cooperhewitt.org\/types\/35301479\/",
      "name":"Copper-wire cloth shielding fabric"
    },
    {
      "id":"35301319",
      "url":"https:\/\/collection.cooperhewitt.org\/types\/35301319\/",
      "name":"Bioimplantable Device for Reconstructive Shoulder Surgery"
    },
    {
      "id":"35301307",
      "url":"https:\/\/collection.cooperhewitt.org\/types\/35301307\/",
      "name":"Guimard printing plate"
    },
    {
      "id":"35301295",
      "url":"https:\/\/collection.cooperhewitt.org\/types\/35301295\/",
      "name":"Fishing net"
    },
    {
      "id":"35301273",
      "url":"https:\/\/collection.cooperhewitt.org\/types\/35301273\/",
      "name":"Brocade paper"
    },
    {
      "id":"35301135",
      "url":"https:\/\/collection.cooperhewitt.org\/types\/35301135\/",
      "name":"Chamberstick"
    },
    {
      "id":"35300933",
      "url":"https:\/\/collection.cooperhewitt.org\/types\/35300933\/",
      "name":"Flectron shielding fabric"
    },
    {
      "id":"35300931",
      "url":"https:\/\/collection.cooperhewitt.org\/types\/35300931\/",
      "name":"Ribbons and sample"
    },
    {
      "id":"35300757",
      "url":"https:\/\/collection.cooperhewitt.org\/types\/35300757\/",
      "name":"Family register"
    },
    {
      "id":"35300755",
      "url":"https:\/\/collection.cooperhewitt.org\/types\/35300755\/",
      "name":"Multiplication table sampler"
    },
    {
      "id":"35300635",
      "url":"https:\/\/collection.cooperhewitt.org\/types\/35300635\/",
      "name":"skateboard"
    },
    {
      "id":"35300325",
      "url":"https:\/\/collection.cooperhewitt.org\/types\/35300325\/",
      "name":"Scrapbook of borders"
    },
    {
      "id":"35300323",
      "url":"https:\/\/collection.cooperhewitt.org\/types\/35300323\/",
      "name":"Exhibition annoucement"
    },
    {
      "id":"35300257",
      "url":"https:\/\/collection.cooperhewitt.org\/types\/35300257\/",
      "name":"Suit"
    },
    {
      "id":"35300243",
      "url":"https:\/\/collection.cooperhewitt.org\/types\/35300243\/",
      "name":"Bread tray"
    },
    {
      "id":"35300237",
      "url":"https:\/\/collection.cooperhewitt.org\/types\/35300237\/",
      "name":"Centerpiece Bowl"
    },
    {
      "id":"35300225",
      "url":"https:\/\/collection.cooperhewitt.org\/types\/35300225\/",
      "name":"Cocktail set"
    },
    {
      "id":"35300219",
      "url":"https:\/\/collection.cooperhewitt.org\/types\/35300219\/",
      "name":"Poster\/Advertisement"
    },
    {
      "id":"35300087",
      "url":"https:\/\/collection.cooperhewitt.org\/types\/35300087\/",
      "name":"Salad serving spoon"
    },
    {
      "id":"35300085",
      "url":"https:\/\/collection.cooperhewitt.org\/types\/35300085\/",
      "name":"Salad serving fork"
    },
    {
      "id":"35300017",
      "url":"https:\/\/collection.cooperhewitt.org\/types\/35300017\/",
      "name":"Saucers"
    },
    {
      "id":"35299963",
      "url":"https:\/\/collection.cooperhewitt.org\/types\/35299963\/",
      "name":"cheese board"
    },
    {
      "id":"35299945",
      "url":"https:\/\/collection.cooperhewitt.org\/types\/35299945\/",
      "name":"Holder for rings"
    },
    {
      "id":"35299943",
      "url":"https:\/\/collection.cooperhewitt.org\/types\/35299943\/",
      "name":"Stand for Rings"
    },
    {
      "id":"35299925",
      "url":"https:\/\/collection.cooperhewitt.org\/types\/35299925\/",
      "name":"dinner forks"
    },
    {
      "id":"35299903",
      "url":"https:\/\/collection.cooperhewitt.org\/types\/35299903\/",
      "name":"Hat rack"
    },
    {
      "id":"35299901",
      "url":"https:\/\/collection.cooperhewitt.org\/types\/35299901\/",
      "name":"Cocktail cabinet"
    },
    {
      "id":"35299857",
      "url":"https:\/\/collection.cooperhewitt.org\/types\/35299857\/",
      "name":"Covered pitcher"
    },
    {
      "id":"35299839",
      "url":"https:\/\/collection.cooperhewitt.org\/types\/35299839\/",
      "name":"Covered vessel"
    },
    {
      "id":"35299709",
      "url":"https:\/\/collection.cooperhewitt.org\/types\/35299709\/",
      "name":"biscuit box"
    },
    {
      "id":"35299685",
      "url":"https:\/\/collection.cooperhewitt.org\/types\/35299685\/",
      "name":"Phonograph"
    },
    {
      "id":"35299677",
      "url":"https:\/\/collection.cooperhewitt.org\/types\/35299677\/",
      "name":"Two-way radio"
    },
    {
      "id":"35299663",
      "url":"https:\/\/collection.cooperhewitt.org\/types\/35299663\/",
      "name":"Motorcycle"
    },
    {
      "id":"35299627",
      "url":"https:\/\/collection.cooperhewitt.org\/types\/35299627\/",
      "name":"Horse wrapping cloth"
    },
    {
      "id":"35299621",
      "url":"https:\/\/collection.cooperhewitt.org\/types\/35299621\/",
      "name":"storage unit"
    },
    {
      "id":"35299499",
      "url":"https:\/\/collection.cooperhewitt.org\/types\/35299499\/",
      "name":"Matchbox holder"
    },
    {
      "id":"35299415",
      "url":"https:\/\/collection.cooperhewitt.org\/types\/35299415\/",
      "name":"Compact disc packaging"
    },
    {
      "id":"35299221",
      "url":"https:\/\/collection.cooperhewitt.org\/types\/35299221\/",
      "name":"Camera and packaging"
    },
    {
      "id":"35299193",
      "url":"https:\/\/collection.cooperhewitt.org\/types\/35299193\/",
      "name":"Syrup jug"
    },
    {
      "id":"35299189",
      "url":"https:\/\/collection.cooperhewitt.org\/types\/35299189\/",
      "name":"Salt caster"
    },
    {
      "id":"35299177",
      "url":"https:\/\/collection.cooperhewitt.org\/types\/35299177\/",
      "name":"pattern, photograph and photostat"
    },
    {
      "id":"35299175",
      "url":"https:\/\/collection.cooperhewitt.org\/types\/35299175\/",
      "name":"Cymbals"
    },
    {
      "id":"35299171",
      "url":"https:\/\/collection.cooperhewitt.org\/types\/35299171\/",
      "name":"Trial sample"
    },
    {
      "id":"35299145",
      "url":"https:\/\/collection.cooperhewitt.org\/types\/35299145\/",
      "name":"piece of carving"
    },
    {
      "id":"35299117",
      "url":"https:\/\/collection.cooperhewitt.org\/types\/35299117\/",
      "name":"Cover for sample book of bobbin lace"
    },
    {
      "id":"35299111",
      "url":"https:\/\/collection.cooperhewitt.org\/types\/35299111\/",
      "name":"sticker \/ label"
    },
    {
      "id":"35299103",
      "url":"https:\/\/collection.cooperhewitt.org\/types\/35299103\/",
      "name":"shoe"
    },
    {
      "id":"35299097",
      "url":"https:\/\/collection.cooperhewitt.org\/types\/35299097\/",
      "name":"Woman's robe"
    },
    {
      "id":"35299033",
      "url":"https:\/\/collection.cooperhewitt.org\/types\/35299033\/",
      "name":"Child's waistcoat"
    },
    {
      "id":"35298975",
      "url":"https:\/\/collection.cooperhewitt.org\/types\/35298975\/",
      "name":"magazine page proof"
    },
    {
      "id":"35298965",
      "url":"https:\/\/collection.cooperhewitt.org\/types\/35298965\/",
      "name":"curtain fragment"
    },
    {
      "id":"35298893",
      "url":"https:\/\/collection.cooperhewitt.org\/types\/35298893\/",
      "name":"Samples and charts"
    },
    {
      "id":"35298889",
      "url":"https:\/\/collection.cooperhewitt.org\/types\/35298889\/",
      "name":"Portfolio cover"
    },
    {
      "id":"35298761",
      "url":"https:\/\/collection.cooperhewitt.org\/types\/35298761\/",
      "name":"Flower floater\/candle holder"
    },
    {
      "id":"35298667",
      "url":"https:\/\/collection.cooperhewitt.org\/types\/35298667\/",
      "name":"Neckerchief"
    },
    {
      "id":"35298659",
      "url":"https:\/\/collection.cooperhewitt.org\/types\/35298659\/",
      "name":"work bag"
    },
    {
      "id":"35298655",
      "url":"https:\/\/collection.cooperhewitt.org\/types\/35298655\/",
      "name":"Cloth with inventory stamp"
    },
    {
      "id":"35298613",
      "url":"https:\/\/collection.cooperhewitt.org\/types\/35298613\/",
      "name":"Photogragh"
    },
    {
      "id":"35298597",
      "url":"https:\/\/collection.cooperhewitt.org\/types\/35298597\/",
      "name":"Border corners"
    },
    {
      "id":"35298507",
      "url":"https:\/\/collection.cooperhewitt.org\/types\/35298507\/",
      "name":"Booklet inner sheet"
    },
    {
      "id":"35298501",
      "url":"https:\/\/collection.cooperhewitt.org\/types\/35298501\/",
      "name":"Pot and tray"
    },
    {
      "id":"35298463",
      "url":"https:\/\/collection.cooperhewitt.org\/types\/35298463\/",
      "name":"Bookcase and desk"
    },
    {
      "id":"35298461",
      "url":"https:\/\/collection.cooperhewitt.org\/types\/35298461\/",
      "name":"Sample of textile"
    },
    {
      "id":"35298429",
      "url":"https:\/\/collection.cooperhewitt.org\/types\/35298429\/",
      "name":"Sponge"
    },
    {
      "id":"35298397",
      "url":"https:\/\/collection.cooperhewitt.org\/types\/35298397\/",
      "name":"2 fragments of a vessel"
    },
    {
      "id":"35298395",
      "url":"https:\/\/collection.cooperhewitt.org\/types\/35298395\/",
      "name":"7 fragments of  vessels"
    },
    {
      "id":"35298361",
      "url":"https:\/\/collection.cooperhewitt.org\/types\/35298361\/",
      "name":"Bicycle"
    },
    {
      "id":"35298293",
      "url":"https:\/\/collection.cooperhewitt.org\/types\/35298293\/",
      "name":"Decanter with stopper"
    },
    {
      "id":"35298267",
      "url":"https:\/\/collection.cooperhewitt.org\/types\/35298267\/",
      "name":"Computer with keyboard and mouse"
    },
    {
      "id":"35298265",
      "url":"https:\/\/collection.cooperhewitt.org\/types\/35298265\/",
      "name":"Decorative papers"
    },
    {
      "id":"35298241",
      "url":"https:\/\/collection.cooperhewitt.org\/types\/35298241\/",
      "name":"Sidewall with border"
    },
    {
      "id":"35298211",
      "url":"https:\/\/collection.cooperhewitt.org\/types\/35298211\/",
      "name":"autographed manuscript"
    },
    {
      "id":"35298209",
      "url":"https:\/\/collection.cooperhewitt.org\/types\/35298209\/",
      "name":"calllgraphy"
    },
    {
      "id":"35298205",
      "url":"https:\/\/collection.cooperhewitt.org\/types\/35298205\/",
      "name":"manuscript of calligraphy"
    },
    {
      "id":"35298203",
      "url":"https:\/\/collection.cooperhewitt.org\/types\/35298203\/",
      "name":"Glasses"
    },
    {
      "id":"35298201",
      "url":"https:\/\/collection.cooperhewitt.org\/types\/35298201\/",
      "name":"Opera glasses"
    },
    {
      "id":"35298197",
      "url":"https:\/\/collection.cooperhewitt.org\/types\/35298197\/",
      "name":"Fragments with partial chef"
    },
    {
      "id":"35298127",
      "url":"https:\/\/collection.cooperhewitt.org\/types\/35298127\/",
      "name":"Buffet"
    },
    {
      "id":"35298017",
      "url":"https:\/\/collection.cooperhewitt.org\/types\/35298017\/",
      "name":"poster, advertisement"
    },
    {
      "id":"35297967",
      "url":"https:\/\/collection.cooperhewitt.org\/types\/35297967\/",
      "name":"Poster and collage"
    },
    {
      "id":"35297849",
      "url":"https:\/\/collection.cooperhewitt.org\/types\/35297849\/",
      "name":"Otsue print"
    },
    {
      "id":"35297845",
      "url":"https:\/\/collection.cooperhewitt.org\/types\/35297845\/",
      "name":"Design for embroidery"
    },
    {
      "id":"35297839",
      "url":"https:\/\/collection.cooperhewitt.org\/types\/35297839\/",
      "name":"Dress panels"
    },
    {
      "id":"35297837",
      "url":"https:\/\/collection.cooperhewitt.org\/types\/35297837\/",
      "name":"Dress fragment"
    },
    {
      "id":"35297835",
      "url":"https:\/\/collection.cooperhewitt.org\/types\/35297835\/",
      "name":"Textile with cloth marks"
    },
    {
      "id":"35297821",
      "url":"https:\/\/collection.cooperhewitt.org\/types\/35297821\/",
      "name":"photograph albums"
    },
    {
      "id":"35297711",
      "url":"https:\/\/collection.cooperhewitt.org\/types\/35297711\/",
      "name":"Espresso maker"
    },
    {
      "id":"35297621",
      "url":"https:\/\/collection.cooperhewitt.org\/types\/35297621\/",
      "name":"solid-perfume container"
    },
    {
      "id":"35297617",
      "url":"https:\/\/collection.cooperhewitt.org\/types\/35297617\/",
      "name":"Stamped wool"
    },
    {
      "id":"35297615",
      "url":"https:\/\/collection.cooperhewitt.org\/types\/35297615\/",
      "name":"advertisment card and receipt"
    },
    {
      "id":"35297603",
      "url":"https:\/\/collection.cooperhewitt.org\/types\/35297603\/",
      "name":"Publicity booklet"
    },
    {
      "id":"35297599",
      "url":"https:\/\/collection.cooperhewitt.org\/types\/35297599\/",
      "name":"pendent"
    },
    {
      "id":"35297593",
      "url":"https:\/\/collection.cooperhewitt.org\/types\/35297593\/",
      "name":"Pattern with needle lace"
    },
    {
      "id":"35297591",
      "url":"https:\/\/collection.cooperhewitt.org\/types\/35297591\/",
      "name":"Orphrey band or picture"
    },
    {
      "id":"35297589",
      "url":"https:\/\/collection.cooperhewitt.org\/types\/35297589\/",
      "name":"CD cover"
    },
    {
      "id":"35297587",
      "url":"https:\/\/collection.cooperhewitt.org\/types\/35297587\/",
      "name":"CD graphics"
    },
    {
      "id":"35297585",
      "url":"https:\/\/collection.cooperhewitt.org\/types\/35297585\/",
      "name":"Sample book of sewing"
    },
    {
      "id":"35297527",
      "url":"https:\/\/collection.cooperhewitt.org\/types\/35297527\/",
      "name":"kitchen tool"
    },
    {
      "id":"35297521",
      "url":"https:\/\/collection.cooperhewitt.org\/types\/35297521\/",
      "name":"Squeegee"
    },
    {
      "id":"35297517",
      "url":"https:\/\/collection.cooperhewitt.org\/types\/35297517\/",
      "name":"Cutlery case cover"
    },
    {
      "id":"35297511",
      "url":"https:\/\/collection.cooperhewitt.org\/types\/35297511\/",
      "name":"Ice cream server"
    },
    {
      "id":"35297459",
      "url":"https:\/\/collection.cooperhewitt.org\/types\/35297459\/",
      "name":"lumbar support"
    },
    {
      "id":"35297457",
      "url":"https:\/\/collection.cooperhewitt.org\/types\/35297457\/",
      "name":"keyboard wrist rest"
    },
    {
      "id":"35297455",
      "url":"https:\/\/collection.cooperhewitt.org\/types\/35297455\/",
      "name":"mouse pad"
    },
    {
      "id":"35297447",
      "url":"https:\/\/collection.cooperhewitt.org\/types\/35297447\/",
      "name":"Ink stand"
    },
    {
      "id":"35297439",
      "url":"https:\/\/collection.cooperhewitt.org\/types\/35297439\/",
      "name":"Design for frieze"
    },
    {
      "id":"35296787",
      "url":"https:\/\/collection.cooperhewitt.org\/types\/35296787\/",
      "name":"Miniature tray"
    },
    {
      "id":"35296035",
      "url":"https:\/\/collection.cooperhewitt.org\/types\/35296035\/",
      "name":"Cushions"
    },
    {
      "id":"35295977",
      "url":"https:\/\/collection.cooperhewitt.org\/types\/35295977\/",
      "name":"Sculptural group"
    },
    {
      "id":"35295791",
      "url":"https:\/\/collection.cooperhewitt.org\/types\/35295791\/",
      "name":"Handkerchief\/scarf"
    },
    {
      "id":"35295787",
      "url":"https:\/\/collection.cooperhewitt.org\/types\/35295787\/",
      "name":"engraving-program"
    },
    {
      "id":"35295785",
      "url":"https:\/\/collection.cooperhewitt.org\/types\/35295785\/",
      "name":"engraving-menu"
    },
    {
      "id":"35295783",
      "url":"https:\/\/collection.cooperhewitt.org\/types\/35295783\/",
      "name":"etchings [6]"
    },
    {
      "id":"35295781",
      "url":"https:\/\/collection.cooperhewitt.org\/types\/35295781\/",
      "name":"book of lithographs"
    },
    {
      "id":"35295761",
      "url":"https:\/\/collection.cooperhewitt.org\/types\/35295761\/",
      "name":"Dressing stand with mirror"
    },
    {
      "id":"35295757",
      "url":"https:\/\/collection.cooperhewitt.org\/types\/35295757\/",
      "name":"Scrimshaw"
    },
    {
      "id":"35295755",
      "url":"https:\/\/collection.cooperhewitt.org\/types\/35295755\/",
      "name":"processional cross"
    },
    {
      "id":"35295739",
      "url":"https:\/\/collection.cooperhewitt.org\/types\/35295739\/",
      "name":"Optical device: design repeater device"
    },
    {
      "id":"35295731",
      "url":"https:\/\/collection.cooperhewitt.org\/types\/35295731\/",
      "name":"Lunette"
    },
    {
      "id":"35295677",
      "url":"https:\/\/collection.cooperhewitt.org\/types\/35295677\/",
      "name":"ornament, cornucopia"
    },
    {
      "id":"35295673",
      "url":"https:\/\/collection.cooperhewitt.org\/types\/35295673\/",
      "name":"upright of framing"
    },
    {
      "id":"35295667",
      "url":"https:\/\/collection.cooperhewitt.org\/types\/35295667\/",
      "name":"reliquary, framed"
    },
    {
      "id":"35295665",
      "url":"https:\/\/collection.cooperhewitt.org\/types\/35295665\/",
      "name":"cartouch"
    },
    {
      "id":"35295655",
      "url":"https:\/\/collection.cooperhewitt.org\/types\/35295655\/",
      "name":"high relief"
    },
    {
      "id":"35295653",
      "url":"https:\/\/collection.cooperhewitt.org\/types\/35295653\/",
      "name":"Fragment of a decoration"
    },
    {
      "id":"35295621",
      "url":"https:\/\/collection.cooperhewitt.org\/types\/35295621\/",
      "name":"Furnishing textile"
    },
    {
      "id":"35295619",
      "url":"https:\/\/collection.cooperhewitt.org\/types\/35295619\/",
      "name":"bound samples"
    }
  ]
}
