{
  "types": [
    {
      "id":"35292391",
      "url":"https:\/\/collection.cooperhewitt.org\/types\/35292391\/",
      "name":"Pair of bracelets"
    },
    {
      "id":"35292317",
      "url":"https:\/\/collection.cooperhewitt.org\/types\/35292317\/",
      "name":"Notebooks"
    },
    {
      "id":"35292169",
      "url":"https:\/\/collection.cooperhewitt.org\/types\/35292169\/",
      "name":"Inkwell stand"
    },
    {
      "id":"35292035",
      "url":"https:\/\/collection.cooperhewitt.org\/types\/35292035\/",
      "name":"Sample blanket"
    },
    {
      "id":"35292031",
      "url":"https:\/\/collection.cooperhewitt.org\/types\/35292031\/",
      "name":"wallpaper border"
    },
    {
      "id":"35291975",
      "url":"https:\/\/collection.cooperhewitt.org\/types\/35291975\/",
      "name":"Bookshelf"
    },
    {
      "id":"35291965",
      "url":"https:\/\/collection.cooperhewitt.org\/types\/35291965\/",
      "name":"Kovsh"
    },
    {
      "id":"35291895",
      "url":"https:\/\/collection.cooperhewitt.org\/types\/35291895\/",
      "name":"Cigarette box"
    },
    {
      "id":"35291823",
      "url":"https:\/\/collection.cooperhewitt.org\/types\/35291823\/",
      "name":"thermometer"
    },
    {
      "id":"35291773",
      "url":"https:\/\/collection.cooperhewitt.org\/types\/35291773\/",
      "name":"stein"
    },
    {
      "id":"35291747",
      "url":"https:\/\/collection.cooperhewitt.org\/types\/35291747\/",
      "name":"mouse"
    },
    {
      "id":"35291743",
      "url":"https:\/\/collection.cooperhewitt.org\/types\/35291743\/",
      "name":"Mechanical figure"
    },
    {
      "id":"35291703",
      "url":"https:\/\/collection.cooperhewitt.org\/types\/35291703\/",
      "name":"Side chairs"
    },
    {
      "id":"35291609",
      "url":"https:\/\/collection.cooperhewitt.org\/types\/35291609\/",
      "name":"Seat covers"
    },
    {
      "id":"35291593",
      "url":"https:\/\/collection.cooperhewitt.org\/types\/35291593\/",
      "name":"Place mat and napkin"
    },
    {
      "id":"35291551",
      "url":"https:\/\/collection.cooperhewitt.org\/types\/35291551\/",
      "name":"retouched photograph"
    },
    {
      "id":"35291537",
      "url":"https:\/\/collection.cooperhewitt.org\/types\/35291537\/",
      "name":"manuscript"
    },
    {
      "id":"35291523",
      "url":"https:\/\/collection.cooperhewitt.org\/types\/35291523\/",
      "name":"Beadwork panel"
    },
    {
      "id":"35291495",
      "url":"https:\/\/collection.cooperhewitt.org\/types\/35291495\/",
      "name":"Cord with tassel"
    },
    {
      "id":"35291393",
      "url":"https:\/\/collection.cooperhewitt.org\/types\/35291393\/",
      "name":"Commemorative picture"
    },
    {
      "id":"35291333",
      "url":"https:\/\/collection.cooperhewitt.org\/types\/35291333\/",
      "name":"paper collage"
    },
    {
      "id":"35291267",
      "url":"https:\/\/collection.cooperhewitt.org\/types\/35291267\/",
      "name":"Printing seal"
    },
    {
      "id":"35291249",
      "url":"https:\/\/collection.cooperhewitt.org\/types\/35291249\/",
      "name":"typography"
    },
    {
      "id":"35291099",
      "url":"https:\/\/collection.cooperhewitt.org\/types\/35291099\/",
      "name":"Standing cup and cover"
    },
    {
      "id":"35291049",
      "url":"https:\/\/collection.cooperhewitt.org\/types\/35291049\/",
      "name":"Cylinder"
    },
    {
      "id":"35291017",
      "url":"https:\/\/collection.cooperhewitt.org\/types\/35291017\/",
      "name":"Book papers"
    },
    {
      "id":"35290897",
      "url":"https:\/\/collection.cooperhewitt.org\/types\/35290897\/",
      "name":"Greeting cards"
    },
    {
      "id":"35290859",
      "url":"https:\/\/collection.cooperhewitt.org\/types\/35290859\/",
      "name":"dressed picture"
    },
    {
      "id":"35290833",
      "url":"https:\/\/collection.cooperhewitt.org\/types\/35290833\/",
      "name":"Sundial compass"
    },
    {
      "id":"35290825",
      "url":"https:\/\/collection.cooperhewitt.org\/types\/35290825\/",
      "name":"Music box and key"
    },
    {
      "id":"35290651",
      "url":"https:\/\/collection.cooperhewitt.org\/types\/35290651\/",
      "name":"Box for playing cards"
    },
    {
      "id":"35290643",
      "url":"https:\/\/collection.cooperhewitt.org\/types\/35290643\/",
      "name":"Pair of garters"
    },
    {
      "id":"35290573",
      "url":"https:\/\/collection.cooperhewitt.org\/types\/35290573\/",
      "name":"Shawl fragments"
    },
    {
      "id":"35290457",
      "url":"https:\/\/collection.cooperhewitt.org\/types\/35290457\/",
      "name":"Chintz border"
    },
    {
      "id":"35290397",
      "url":"https:\/\/collection.cooperhewitt.org\/types\/35290397\/",
      "name":"Lorgnette"
    },
    {
      "id":"35290283",
      "url":"https:\/\/collection.cooperhewitt.org\/types\/35290283\/",
      "name":"Waste bowl"
    },
    {
      "id":"35290245",
      "url":"https:\/\/collection.cooperhewitt.org\/types\/35290245\/",
      "name":"Box cover"
    },
    {
      "id":"35290239",
      "url":"https:\/\/collection.cooperhewitt.org\/types\/35290239\/",
      "name":"peg, candlestand"
    },
    {
      "id":"35290163",
      "url":"https:\/\/collection.cooperhewitt.org\/types\/35290163\/",
      "name":"fan box"
    },
    {
      "id":"35290153",
      "url":"https:\/\/collection.cooperhewitt.org\/types\/35290153\/",
      "name":"hingeplate"
    },
    {
      "id":"35290151",
      "url":"https:\/\/collection.cooperhewitt.org\/types\/35290151\/",
      "name":"padlock"
    },
    {
      "id":"35290119",
      "url":"https:\/\/collection.cooperhewitt.org\/types\/35290119\/",
      "name":"Bracelet, comb and earrings"
    },
    {
      "id":"35289949",
      "url":"https:\/\/collection.cooperhewitt.org\/types\/35289949\/",
      "name":"Toast rack"
    },
    {
      "id":"35289905",
      "url":"https:\/\/collection.cooperhewitt.org\/types\/35289905\/",
      "name":"Blouse pieces"
    },
    {
      "id":"35289871",
      "url":"https:\/\/collection.cooperhewitt.org\/types\/35289871\/",
      "name":"Frieze\/dado"
    },
    {
      "id":"35289745",
      "url":"https:\/\/collection.cooperhewitt.org\/types\/35289745\/",
      "name":"fitter (2) & Crossover (1)"
    },
    {
      "id":"35289655",
      "url":"https:\/\/collection.cooperhewitt.org\/types\/35289655\/",
      "name":"Chesspiece"
    },
    {
      "id":"35289473",
      "url":"https:\/\/collection.cooperhewitt.org\/types\/35289473\/",
      "name":"Silk fragment"
    },
    {
      "id":"35289449",
      "url":"https:\/\/collection.cooperhewitt.org\/types\/35289449\/",
      "name":"Brooch and box"
    },
    {
      "id":"35289255",
      "url":"https:\/\/collection.cooperhewitt.org\/types\/35289255\/",
      "name":"Livery band"
    },
    {
      "id":"35289167",
      "url":"https:\/\/collection.cooperhewitt.org\/types\/35289167\/",
      "name":"Tunic fragment"
    },
    {
      "id":"35289085",
      "url":"https:\/\/collection.cooperhewitt.org\/types\/35289085\/",
      "name":"Lamp, camphene"
    },
    {
      "id":"35289005",
      "url":"https:\/\/collection.cooperhewitt.org\/types\/35289005\/",
      "name":"Infant's cap"
    },
    {
      "id":"35288929",
      "url":"https:\/\/collection.cooperhewitt.org\/types\/35288929\/",
      "name":"Woodblock Print"
    },
    {
      "id":"35288905",
      "url":"https:\/\/collection.cooperhewitt.org\/types\/35288905\/",
      "name":"Posey holder"
    },
    {
      "id":"35288857",
      "url":"https:\/\/collection.cooperhewitt.org\/types\/35288857\/",
      "name":"Pair of mitts"
    },
    {
      "id":"35288813",
      "url":"https:\/\/collection.cooperhewitt.org\/types\/35288813\/",
      "name":"Christening gown"
    },
    {
      "id":"35288629",
      "url":"https:\/\/collection.cooperhewitt.org\/types\/35288629\/",
      "name":"working drawing,tea sets"
    },
    {
      "id":"35288609",
      "url":"https:\/\/collection.cooperhewitt.org\/types\/35288609\/",
      "name":"project,brooches"
    },
    {
      "id":"35288607",
      "url":"https:\/\/collection.cooperhewitt.org\/types\/35288607\/",
      "name":"project,bracelets"
    },
    {
      "id":"35288557",
      "url":"https:\/\/collection.cooperhewitt.org\/types\/35288557\/",
      "name":"Mantilla"
    },
    {
      "id":"35288531",
      "url":"https:\/\/collection.cooperhewitt.org\/types\/35288531\/",
      "name":"Master weaver's thesis book"
    },
    {
      "id":"35288527",
      "url":"https:\/\/collection.cooperhewitt.org\/types\/35288527\/",
      "name":"Panel for a fan case"
    },
    {
      "id":"35288503",
      "url":"https:\/\/collection.cooperhewitt.org\/types\/35288503\/",
      "name":"Pattern with uncompleted piece of lace"
    },
    {
      "id":"35288491",
      "url":"https:\/\/collection.cooperhewitt.org\/types\/35288491\/",
      "name":"early islamic"
    },
    {
      "id":"35287987",
      "url":"https:\/\/collection.cooperhewitt.org\/types\/35287987\/",
      "name":"Decoration"
    },
    {
      "id":"35287907",
      "url":"https:\/\/collection.cooperhewitt.org\/types\/35287907\/",
      "name":"Accessories"
    },
    {
      "id":"35287787",
      "url":"https:\/\/collection.cooperhewitt.org\/types\/35287787\/",
      "name":"Cards"
    },
    {
      "id":"35287709",
      "url":"https:\/\/collection.cooperhewitt.org\/types\/35287709\/",
      "name":"Printed textile"
    },
    {
      "id":"35287685",
      "url":"https:\/\/collection.cooperhewitt.org\/types\/35287685\/",
      "name":"sheath piece"
    },
    {
      "id":"35287657",
      "url":"https:\/\/collection.cooperhewitt.org\/types\/35287657\/",
      "name":"habaki"
    },
    {
      "id":"35287639",
      "url":"https:\/\/collection.cooperhewitt.org\/types\/35287639\/",
      "name":"Umabari"
    },
    {
      "id":"35287579",
      "url":"https:\/\/collection.cooperhewitt.org\/types\/35287579\/",
      "name":"puppet theater"
    },
    {
      "id":"35287561",
      "url":"https:\/\/collection.cooperhewitt.org\/types\/35287561\/",
      "name":"Musical Score"
    },
    {
      "id":"35287535",
      "url":"https:\/\/collection.cooperhewitt.org\/types\/35287535\/",
      "name":"Blue print"
    },
    {
      "id":"35287441",
      "url":"https:\/\/collection.cooperhewitt.org\/types\/35287441\/",
      "name":"Upholstery textile"
    },
    {
      "id":"35287319",
      "url":"https:\/\/collection.cooperhewitt.org\/types\/35287319\/",
      "name":"charcoal stove"
    },
    {
      "id":"35287307",
      "url":"https:\/\/collection.cooperhewitt.org\/types\/35287307\/",
      "name":"Doorplate"
    },
    {
      "id":"35287265",
      "url":"https:\/\/collection.cooperhewitt.org\/types\/35287265\/",
      "name":"Doorplate fastener knobbed post"
    },
    {
      "id":"35286227",
      "url":"https:\/\/collection.cooperhewitt.org\/types\/35286227\/",
      "name":"Uncut waistcoat"
    },
    {
      "id":"35286155",
      "url":"https:\/\/collection.cooperhewitt.org\/types\/35286155\/",
      "name":"mekugi"
    },
    {
      "id":"35285775",
      "url":"https:\/\/collection.cooperhewitt.org\/types\/35285775\/",
      "name":"Dado or frieze"
    },
    {
      "id":"35285771",
      "url":"https:\/\/collection.cooperhewitt.org\/types\/35285771\/",
      "name":"Ceiling ornament"
    },
    {
      "id":"35285523",
      "url":"https:\/\/collection.cooperhewitt.org\/types\/35285523\/",
      "name":"Noh robe"
    },
    {
      "id":"35285471",
      "url":"https:\/\/collection.cooperhewitt.org\/types\/35285471\/",
      "name":"cloak pin"
    },
    {
      "id":"35284861",
      "url":"https:\/\/collection.cooperhewitt.org\/types\/35284861\/",
      "name":"Dog"
    },
    {
      "id":"35284251",
      "url":"https:\/\/collection.cooperhewitt.org\/types\/35284251\/",
      "name":"snuffer"
    },
    {
      "id":"35284037",
      "url":"https:\/\/collection.cooperhewitt.org\/types\/35284037\/",
      "name":"Knife handle"
    },
    {
      "id":"35283971",
      "url":"https:\/\/collection.cooperhewitt.org\/types\/35283971\/",
      "name":"Notebook"
    },
    {
      "id":"35283305",
      "url":"https:\/\/collection.cooperhewitt.org\/types\/35283305\/",
      "name":"Fragment, veneer"
    },
    {
      "id":"35282899",
      "url":"https:\/\/collection.cooperhewitt.org\/types\/35282899\/",
      "name":"Woman's Cap"
    },
    {
      "id":"35270785",
      "url":"https:\/\/collection.cooperhewitt.org\/types\/35270785\/",
      "name":"Collar and cuff"
    },
    {
      "id":"35270759",
      "url":"https:\/\/collection.cooperhewitt.org\/types\/35270759\/",
      "name":"festival,marriage book"
    },
    {
      "id":"35270545",
      "url":"https:\/\/collection.cooperhewitt.org\/types\/35270545\/",
      "name":"Spindle"
    },
    {
      "id":"35270023",
      "url":"https:\/\/collection.cooperhewitt.org\/types\/35270023\/",
      "name":"pin-pri"
    },
    {
      "id":"35269451",
      "url":"https:\/\/collection.cooperhewitt.org\/types\/35269451\/",
      "name":"Mitt"
    },
    {
      "id":"35269447",
      "url":"https:\/\/collection.cooperhewitt.org\/types\/35269447\/",
      "name":"Sleeves"
    },
    {
      "id":"35268737",
      "url":"https:\/\/collection.cooperhewitt.org\/types\/35268737\/",
      "name":"tureen"
    },
    {
      "id":"35268455",
      "url":"https:\/\/collection.cooperhewitt.org\/types\/35268455\/",
      "name":"foot warmer"
    },
    {
      "id":"35268437",
      "url":"https:\/\/collection.cooperhewitt.org\/types\/35268437\/",
      "name":"Lecythus"
    },
    {
      "id":"35268307",
      "url":"https:\/\/collection.cooperhewitt.org\/types\/35268307\/",
      "name":"Pair of Slippers"
    },
    {
      "id":"35267637",
      "url":"https:\/\/collection.cooperhewitt.org\/types\/35267637\/",
      "name":"fork and knife"
    },
    {
      "id":"35267547",
      "url":"https:\/\/collection.cooperhewitt.org\/types\/35267547\/",
      "name":"window"
    },
    {
      "id":"35267437",
      "url":"https:\/\/collection.cooperhewitt.org\/types\/35267437\/",
      "name":"Coffeepot and stand"
    },
    {
      "id":"35266699",
      "url":"https:\/\/collection.cooperhewitt.org\/types\/35266699\/",
      "name":"Mustard pot"
    },
    {
      "id":"35266613",
      "url":"https:\/\/collection.cooperhewitt.org\/types\/35266613\/",
      "name":"latch, window"
    },
    {
      "id":"35266585",
      "url":"https:\/\/collection.cooperhewitt.org\/types\/35266585\/",
      "name":"espagnolette"
    },
    {
      "id":"35265723",
      "url":"https:\/\/collection.cooperhewitt.org\/types\/35265723\/",
      "name":"Sugarbowl and cover"
    },
    {
      "id":"35264441",
      "url":"https:\/\/collection.cooperhewitt.org\/types\/35264441\/",
      "name":"nail head"
    },
    {
      "id":"35264381",
      "url":"https:\/\/collection.cooperhewitt.org\/types\/35264381\/",
      "name":"tongs"
    },
    {
      "id":"35264345",
      "url":"https:\/\/collection.cooperhewitt.org\/types\/35264345\/",
      "name":"andiron"
    },
    {
      "id":"35264113",
      "url":"https:\/\/collection.cooperhewitt.org\/types\/35264113\/",
      "name":"panel, framed"
    },
    {
      "id":"35264093",
      "url":"https:\/\/collection.cooperhewitt.org\/types\/35264093\/",
      "name":"Portrait miniature"
    },
    {
      "id":"35263637",
      "url":"https:\/\/collection.cooperhewitt.org\/types\/35263637\/",
      "name":"Ornament - pilaster"
    },
    {
      "id":"35262321",
      "url":"https:\/\/collection.cooperhewitt.org\/types\/35262321\/",
      "name":"Fragment, pilaster"
    },
    {
      "id":"35262253",
      "url":"https:\/\/collection.cooperhewitt.org\/types\/35262253\/",
      "name":"Fragment, floral"
    },
    {
      "id":"35262163",
      "url":"https:\/\/collection.cooperhewitt.org\/types\/35262163\/",
      "name":"plaquet"
    },
    {
      "id":"35261727",
      "url":"https:\/\/collection.cooperhewitt.org\/types\/35261727\/",
      "name":"Flower pot"
    },
    {
      "id":"35261671",
      "url":"https:\/\/collection.cooperhewitt.org\/types\/35261671\/",
      "name":"Flower holder"
    },
    {
      "id":"35260933",
      "url":"https:\/\/collection.cooperhewitt.org\/types\/35260933\/",
      "name":"Funerary urn"
    },
    {
      "id":"35260927",
      "url":"https:\/\/collection.cooperhewitt.org\/types\/35260927\/",
      "name":"Amphora"
    },
    {
      "id":"35259563",
      "url":"https:\/\/collection.cooperhewitt.org\/types\/35259563\/",
      "name":"Leather - fragment"
    },
    {
      "id":"35259419",
      "url":"https:\/\/collection.cooperhewitt.org\/types\/35259419\/",
      "name":"feet"
    },
    {
      "id":"35259325",
      "url":"https:\/\/collection.cooperhewitt.org\/types\/35259325\/",
      "name":"Sifting spoon"
    },
    {
      "id":"35258597",
      "url":"https:\/\/collection.cooperhewitt.org\/types\/35258597\/",
      "name":"Mantle"
    },
    {
      "id":"35258291",
      "url":"https:\/\/collection.cooperhewitt.org\/types\/35258291\/",
      "name":"Chasuble back"
    },
    {
      "id":"35257687",
      "url":"https:\/\/collection.cooperhewitt.org\/types\/35257687\/",
      "name":"Sleeve fragments"
    },
    {
      "id":"35257571",
      "url":"https:\/\/collection.cooperhewitt.org\/types\/35257571\/",
      "name":"Orphrey fragment"
    },
    {
      "id":"35257075",
      "url":"https:\/\/collection.cooperhewitt.org\/types\/35257075\/",
      "name":"Fragment of band"
    },
    {
      "id":"35256511",
      "url":"https:\/\/collection.cooperhewitt.org\/types\/35256511\/",
      "name":"gate"
    },
    {
      "id":"35256467",
      "url":"https:\/\/collection.cooperhewitt.org\/types\/35256467\/",
      "name":"Bed curtain"
    },
    {
      "id":"35256387",
      "url":"https:\/\/collection.cooperhewitt.org\/types\/35256387\/",
      "name":"Ribbon fragment"
    },
    {
      "id":"35256043",
      "url":"https:\/\/collection.cooperhewitt.org\/types\/35256043\/",
      "name":"napkin ring"
    },
    {
      "id":"35255301",
      "url":"https:\/\/collection.cooperhewitt.org\/types\/35255301\/",
      "name":"Accessory"
    },
    {
      "id":"35255247",
      "url":"https:\/\/collection.cooperhewitt.org\/types\/35255247\/",
      "name":"etching"
    },
    {
      "id":"35254137",
      "url":"https:\/\/collection.cooperhewitt.org\/types\/35254137\/",
      "name":"Shoe Horn"
    },
    {
      "id":"35253339",
      "url":"https:\/\/collection.cooperhewitt.org\/types\/35253339\/",
      "name":"Chaise"
    },
    {
      "id":"35252891",
      "url":"https:\/\/collection.cooperhewitt.org\/types\/35252891\/",
      "name":"Coffee Service"
    },
    {
      "id":"35252605",
      "url":"https:\/\/collection.cooperhewitt.org\/types\/35252605\/",
      "name":"Music stand"
    },
    {
      "id":"35252291",
      "url":"https:\/\/collection.cooperhewitt.org\/types\/35252291\/",
      "name":"teapot stand"
    },
    {
      "id":"35251939",
      "url":"https:\/\/collection.cooperhewitt.org\/types\/35251939\/",
      "name":"Wallpaper"
    },
    {
      "id":"35251773",
      "url":"https:\/\/collection.cooperhewitt.org\/types\/35251773\/",
      "name":"Bed"
    },
    {
      "id":"35251205",
      "url":"https:\/\/collection.cooperhewitt.org\/types\/35251205\/",
      "name":"Chalice"
    },
    {
      "id":"35250679",
      "url":"https:\/\/collection.cooperhewitt.org\/types\/35250679\/",
      "name":"Picture frame"
    },
    {
      "id":"35249933",
      "url":"https:\/\/collection.cooperhewitt.org\/types\/35249933\/",
      "name":"Costume"
    },
    {
      "id":"35249827",
      "url":"https:\/\/collection.cooperhewitt.org\/types\/35249827\/",
      "name":"Tea cup"
    },
    {
      "id":"35249803",
      "url":"https:\/\/collection.cooperhewitt.org\/types\/35249803\/",
      "name":"Scent bottle and lid"
    },
    {
      "id":"35249799",
      "url":"https:\/\/collection.cooperhewitt.org\/types\/35249799\/",
      "name":"Flagon"
    },
    {
      "id":"35249595",
      "url":"https:\/\/collection.cooperhewitt.org\/types\/35249595\/",
      "name":"Cross"
    },
    {
      "id":"35248579",
      "url":"https:\/\/collection.cooperhewitt.org\/types\/35248579\/",
      "name":"construction"
    },
    {
      "id":"35247581",
      "url":"https:\/\/collection.cooperhewitt.org\/types\/35247581\/",
      "name":"Mailing label"
    },
    {
      "id":"35247565",
      "url":"https:\/\/collection.cooperhewitt.org\/types\/35247565\/",
      "name":"Tobacco box"
    },
    {
      "id":"35237969",
      "url":"https:\/\/collection.cooperhewitt.org\/types\/35237969\/",
      "name":"Chaise longue"
    },
    {
      "id":"35237125",
      "url":"https:\/\/collection.cooperhewitt.org\/types\/35237125\/",
      "name":"Study"
    },
    {
      "id":"1158860735",
      "url":"https:\/\/collection.cooperhewitt.org\/types\/1158860735\/",
      "name":"Fragment of a garment with embroidered inscription"
    },
    {
      "id":"1158855693",
      "url":"https:\/\/collection.cooperhewitt.org\/types\/1158855693\/",
      "name":"Program drawing"
    },
    {
      "id":"1158847057",
      "url":"https:\/\/collection.cooperhewitt.org\/types\/1158847057\/",
      "name":"Compression Socks"
    },
    {
      "id":"1158831697",
      "url":"https:\/\/collection.cooperhewitt.org\/types\/1158831697\/",
      "name":"Assistive device"
    },
    {
      "id":"1158831661",
      "url":"https:\/\/collection.cooperhewitt.org\/types\/1158831661\/",
      "name":"Card game"
    },
    {
      "id":"1158831571",
      "url":"https:\/\/collection.cooperhewitt.org\/types\/1158831571\/",
      "name":"Earring Aid"
    },
    {
      "id":"1158794967",
      "url":"https:\/\/collection.cooperhewitt.org\/types\/1158794967\/",
      "name":"App"
    },
    {
      "id":"1141961763",
      "url":"https:\/\/collection.cooperhewitt.org\/types\/1141961763\/",
      "name":"Mobile Phone"
    },
    {
      "id":"1109370265",
      "url":"https:\/\/collection.cooperhewitt.org\/types\/1109370265\/",
      "name":"Door curtain (noren)"
    },
    {
      "id":"1108906571",
      "url":"https:\/\/collection.cooperhewitt.org\/types\/1108906571\/",
      "name":"Perfume Flacon"
    },
    {
      "id":"1108906565",
      "url":"https:\/\/collection.cooperhewitt.org\/types\/1108906565\/",
      "name":"Perfume Presentation"
    },
    {
      "id":"1108826335",
      "url":"https:\/\/collection.cooperhewitt.org\/types\/1108826335\/",
      "name":"Double saddle blanket"
    },
    {
      "id":"1108797203",
      "url":"https:\/\/collection.cooperhewitt.org\/types\/1108797203\/",
      "name":"Tinsel picture"
    },
    {
      "id":"1108794839",
      "url":"https:\/\/collection.cooperhewitt.org\/types\/1108794839\/",
      "name":"Book, Cover"
    },
    {
      "id":"907130183",
      "url":"https:\/\/collection.cooperhewitt.org\/types\/907130183\/",
      "name":"tea and coffee service"
    },
    {
      "id":"890535865",
      "url":"https:\/\/collection.cooperhewitt.org\/types\/890535865\/",
      "name":"Pair of escutcheons"
    },
    {
      "id":"890290327",
      "url":"https:\/\/collection.cooperhewitt.org\/types\/890290327\/",
      "name":"Griffons"
    },
    {
      "id":"890290235",
      "url":"https:\/\/collection.cooperhewitt.org\/types\/890290235\/",
      "name":"Cachepot and liner"
    },
    {
      "id":"890290227",
      "url":"https:\/\/collection.cooperhewitt.org\/types\/890290227\/",
      "name":"Coal Scuttle and cover"
    },
    {
      "id":"874411315",
      "url":"https:\/\/collection.cooperhewitt.org\/types\/874411315\/",
      "name":"Pair of trays"
    },
    {
      "id":"874411311",
      "url":"https:\/\/collection.cooperhewitt.org\/types\/874411311\/",
      "name":"Pair of urns"
    },
    {
      "id":"874410573",
      "url":"https:\/\/collection.cooperhewitt.org\/types\/874410573\/",
      "name":"Tea caddy and sugar caddy with lids"
    },
    {
      "id":"874410337",
      "url":"https:\/\/collection.cooperhewitt.org\/types\/874410337\/",
      "name":"Purse frames"
    },
    {
      "id":"874410205",
      "url":"https:\/\/collection.cooperhewitt.org\/types\/874410205\/",
      "name":"Bag with zip"
    },
    {
      "id":"874396429",
      "url":"https:\/\/collection.cooperhewitt.org\/types\/874396429\/",
      "name":"Teapot and  cover"
    },
    {
      "id":"874395361",
      "url":"https:\/\/collection.cooperhewitt.org\/types\/874395361\/",
      "name":"flowers"
    },
    {
      "id":"874390837",
      "url":"https:\/\/collection.cooperhewitt.org\/types\/874390837\/",
      "name":"Cup and trembleuse saucer"
    },
    {
      "id":"874387371",
      "url":"https:\/\/collection.cooperhewitt.org\/types\/874387371\/",
      "name":"Baby bonnet"
    },
    {
      "id":"874370383",
      "url":"https:\/\/collection.cooperhewitt.org\/types\/874370383\/",
      "name":"Pair of vases and cover"
    },
    {
      "id":"874362979",
      "url":"https:\/\/collection.cooperhewitt.org\/types\/874362979\/",
      "name":"Sculpture on stand"
    },
    {
      "id":"874344457",
      "url":"https:\/\/collection.cooperhewitt.org\/types\/874344457\/",
      "name":"Dyed yarn samples"
    },
    {
      "id":"873526399",
      "url":"https:\/\/collection.cooperhewitt.org\/types\/873526399\/",
      "name":"Torah pointer (Yad)"
    },
    {
      "id":"873526389",
      "url":"https:\/\/collection.cooperhewitt.org\/types\/873526389\/",
      "name":"Skippet and cover with seal of Leopold II"
    },
    {
      "id":"856763605",
      "url":"https:\/\/collection.cooperhewitt.org\/types\/856763605\/",
      "name":"Coin of Ptolemy III Euergetes"
    },
    {
      "id":"840511997",
      "url":"https:\/\/collection.cooperhewitt.org\/types\/840511997\/",
      "name":"Cache pots"
    },
    {
      "id":"840505691",
      "url":"https:\/\/collection.cooperhewitt.org\/types\/840505691\/",
      "name":"Pair of cache pots"
    },
    {
      "id":"840458593",
      "url":"https:\/\/collection.cooperhewitt.org\/types\/840458593\/",
      "name":"Pair of dishes"
    },
    {
      "id":"840458591",
      "url":"https:\/\/collection.cooperhewitt.org\/types\/840458591\/",
      "name":"Pair of salt cellars"
    },
    {
      "id":"823340371",
      "url":"https:\/\/collection.cooperhewitt.org\/types\/823340371\/",
      "name":"Wall fountain with cover and basin"
    },
    {
      "id":"823340355",
      "url":"https:\/\/collection.cooperhewitt.org\/types\/823340355\/",
      "name":"Kin-chaku (purse) with netsuke and ojime on chord"
    },
    {
      "id":"823332025",
      "url":"https:\/\/collection.cooperhewitt.org\/types\/823332025\/",
      "name":"Door boss and nail"
    },
    {
      "id":"823322975",
      "url":"https:\/\/collection.cooperhewitt.org\/types\/823322975\/",
      "name":"Bough pot"
    },
    {
      "id":"772978147",
      "url":"https:\/\/collection.cooperhewitt.org\/types\/772978147\/",
      "name":"Cream jug and cover with tray"
    },
    {
      "id":"639618703",
      "url":"https:\/\/collection.cooperhewitt.org\/types\/639618703\/",
      "name":"Obi fragment"
    },
    {
      "id":"421205685",
      "url":"https:\/\/collection.cooperhewitt.org\/types\/421205685\/",
      "name":"Semi-Mystery Clock"
    },
    {
      "id":"421166337",
      "url":"https:\/\/collection.cooperhewitt.org\/types\/421166337\/",
      "name":"Mystery Clock"
    },
    {
      "id":"420780291",
      "url":"https:\/\/collection.cooperhewitt.org\/types\/420780291\/",
      "name":"Vanity and Cigarette Case"
    },
    {
      "id":"420780265",
      "url":"https:\/\/collection.cooperhewitt.org\/types\/420780265\/",
      "name":"Cigarette or Card Box"
    },
    {
      "id":"420560333",
      "url":"https:\/\/collection.cooperhewitt.org\/types\/420560333\/",
      "name":"Amulets"
    },
    {
      "id":"420556553",
      "url":"https:\/\/collection.cooperhewitt.org\/types\/420556553\/",
      "name":"Stereo Cabinet"
    },
    {
      "id":"404578655",
      "url":"https:\/\/collection.cooperhewitt.org\/types\/404578655\/",
      "name":"Garden seat"
    },
    {
      "id":"404578407",
      "url":"https:\/\/collection.cooperhewitt.org\/types\/404578407\/",
      "name":"Napkin fragment"
    },
    {
      "id":"404576817",
      "url":"https:\/\/collection.cooperhewitt.org\/types\/404576817\/",
      "name":"Sewing instruction book sample"
    },
    {
      "id":"404576263",
      "url":"https:\/\/collection.cooperhewitt.org\/types\/404576263\/",
      "name":"Curtain border fragment"
    },
    {
      "id":"404576167",
      "url":"https:\/\/collection.cooperhewitt.org\/types\/404576167\/",
      "name":"Shawl border fragment"
    },
    {
      "id":"404575295",
      "url":"https:\/\/collection.cooperhewitt.org\/types\/404575295\/",
      "name":"Pleated pocket fan and case"
    },
    {
      "id":"404573795",
      "url":"https:\/\/collection.cooperhewitt.org\/types\/404573795\/",
      "name":"Crewel wool fragment"
    },
    {
      "id":"404530435",
      "url":"https:\/\/collection.cooperhewitt.org\/types\/404530435\/",
      "name":"Maxi Server"
    },
    {
      "id":"404530433",
      "url":"https:\/\/collection.cooperhewitt.org\/types\/404530433\/",
      "name":"Mini Server"
    },
    {
      "id":"404530387",
      "url":"https:\/\/collection.cooperhewitt.org\/types\/404530387\/",
      "name":"Divided Picnic Plate"
    },
    {
      "id":"404530373",
      "url":"https:\/\/collection.cooperhewitt.org\/types\/404530373\/",
      "name":"Miniature mask"
    },
    {
      "id":"404529581",
      "url":"https:\/\/collection.cooperhewitt.org\/types\/404529581\/",
      "name":"Pair of frames"
    },
    {
      "id":"253579945",
      "url":"https:\/\/collection.cooperhewitt.org\/types\/253579945\/",
      "name":"Atmospheric Reentry"
    },
    {
      "id":"186080029",
      "url":"https:\/\/collection.cooperhewitt.org\/types\/186080029\/",
      "name":"Pamphlet and medal"
    },
    {
      "id":"169619551",
      "url":"https:\/\/collection.cooperhewitt.org\/types\/169619551\/",
      "name":"Tiraz tapestry fragment"
    },
    {
      "id":"152720917",
      "url":"https:\/\/collection.cooperhewitt.org\/types\/152720917\/",
      "name":"Streamer"
    },
    {
      "id":"102199867",
      "url":"https:\/\/collection.cooperhewitt.org\/types\/102199867\/",
      "name":"Miniature bris\u00e9 fan"
    },
    {
      "id":"102147087",
      "url":"https:\/\/collection.cooperhewitt.org\/types\/102147087\/",
      "name":"Case and eyeglasses"
    },
    {
      "id":"102133223",
      "url":"https:\/\/collection.cooperhewitt.org\/types\/102133223\/",
      "name":"Wine coaster"
    },
    {
      "id":"102133217",
      "url":"https:\/\/collection.cooperhewitt.org\/types\/102133217\/",
      "name":"Pair of salts"
    },
    {
      "id":"102133211",
      "url":"https:\/\/collection.cooperhewitt.org\/types\/102133211\/",
      "name":"Pair of coasters"
    },
    {
      "id":"102133193",
      "url":"https:\/\/collection.cooperhewitt.org\/types\/102133193\/",
      "name":"Pair of platters"
    },
    {
      "id":"85081503",
      "url":"https:\/\/collection.cooperhewitt.org\/types\/85081503\/",
      "name":"Pleated fan and box"
    },
    {
      "id":"85024327",
      "url":"https:\/\/collection.cooperhewitt.org\/types\/85024327\/",
      "name":"Pillow for making bobbin lace"
    },
    {
      "id":"85005669",
      "url":"https:\/\/collection.cooperhewitt.org\/types\/85005669\/",
      "name":"Balustrade Panels"
    },
    {
      "id":"84985295",
      "url":"https:\/\/collection.cooperhewitt.org\/types\/84985295\/",
      "name":"Wall Maquette"
    },
    {
      "id":"69193829",
      "url":"https:\/\/collection.cooperhewitt.org\/types\/69193829\/",
      "name":"Gravity stool"
    },
    {
      "id":"69187261",
      "url":"https:\/\/collection.cooperhewitt.org\/types\/69187261\/",
      "name":"Adinkra wrapper"
    },
    {
      "id":"69154789",
      "url":"https:\/\/collection.cooperhewitt.org\/types\/69154789\/",
      "name":"Sleeve cuff"
    },
    {
      "id":"69117301",
      "url":"https:\/\/collection.cooperhewitt.org\/types\/69117301\/",
      "name":"Garment for an ecclesiastical figurine"
    },
    {
      "id":"68790713",
      "url":"https:\/\/collection.cooperhewitt.org\/types\/68790713\/",
      "name":"Kente prestige cloth"
    },
    {
      "id":"68790703",
      "url":"https:\/\/collection.cooperhewitt.org\/types\/68790703\/",
      "name":"Adire wrapper"
    },
    {
      "id":"68790687",
      "url":"https:\/\/collection.cooperhewitt.org\/types\/68790687\/",
      "name":"Man's cap (laket)"
    },
    {
      "id":"68779403",
      "url":"https:\/\/collection.cooperhewitt.org\/types\/68779403\/",
      "name":"Pocket Knife\/Multitool"
    },
    {
      "id":"68778229",
      "url":"https:\/\/collection.cooperhewitt.org\/types\/68778229\/",
      "name":"Commemorative handkerchief"
    },
    {
      "id":"68777741",
      "url":"https:\/\/collection.cooperhewitt.org\/types\/68777741\/",
      "name":"Woman's wrapper"
    },
    {
      "id":"68775843",
      "url":"https:\/\/collection.cooperhewitt.org\/types\/68775843\/",
      "name":"Chair model (two seater)"
    },
    {
      "id":"68775807",
      "url":"https:\/\/collection.cooperhewitt.org\/types\/68775807\/",
      "name":"Wrapping cloth (bojagi)"
    },
    {
      "id":"68775729",
      "url":"https:\/\/collection.cooperhewitt.org\/types\/68775729\/",
      "name":"Tunic fragment with clavus bands"
    },
    {
      "id":"68765637",
      "url":"https:\/\/collection.cooperhewitt.org\/types\/68765637\/",
      "name":"Foldout"
    },
    {
      "id":"68765623",
      "url":"https:\/\/collection.cooperhewitt.org\/types\/68765623\/",
      "name":"Endpapers"
    },
    {
      "id":"68765459",
      "url":"https:\/\/collection.cooperhewitt.org\/types\/68765459\/",
      "name":"Tea caddy and cover \/ wrong number"
    },
    {
      "id":"68742969",
      "url":"https:\/\/collection.cooperhewitt.org\/types\/68742969\/",
      "name":"Earclips and brooch"
    },
    {
      "id":"68729903",
      "url":"https:\/\/collection.cooperhewitt.org\/types\/68729903\/",
      "name":"Sculptural vessel"
    },
    {
      "id":"68515061",
      "url":"https:\/\/collection.cooperhewitt.org\/types\/68515061\/",
      "name":"Missal (liturgical book)"
    },
    {
      "id":"68274289",
      "url":"https:\/\/collection.cooperhewitt.org\/types\/68274289\/",
      "name":"Fine binding"
    },
    {
      "id":"68268745",
      "url":"https:\/\/collection.cooperhewitt.org\/types\/68268745\/",
      "name":"Caster with lid"
    },
    {
      "id":"68267735",
      "url":"https:\/\/collection.cooperhewitt.org\/types\/68267735\/",
      "name":"Handmade model of Blocks and Grid"
    },
    {
      "id":"68267731",
      "url":"https:\/\/collection.cooperhewitt.org\/types\/68267731\/",
      "name":"Handmade model of Grid"
    },
    {
      "id":"68267531",
      "url":"https:\/\/collection.cooperhewitt.org\/types\/68267531\/",
      "name":"Pair of stacking stools"
    },
    {
      "id":"68266155",
      "url":"https:\/\/collection.cooperhewitt.org\/types\/68266155\/",
      "name":"Pattern pricking with lace sample"
    },
    {
      "id":"68265823",
      "url":"https:\/\/collection.cooperhewitt.org\/types\/68265823\/",
      "name":"Covered cup and saucer"
    },
    {
      "id":"68248717",
      "url":"https:\/\/collection.cooperhewitt.org\/types\/68248717\/",
      "name":"Sleeve ruffles"
    },
    {
      "id":"68245601",
      "url":"https:\/\/collection.cooperhewitt.org\/types\/68245601\/",
      "name":"Note card"
    },
    {
      "id":"68244895",
      "url":"https:\/\/collection.cooperhewitt.org\/types\/68244895\/",
      "name":"Hand-woven sample for drapery material"
    },
    {
      "id":"51866563",
      "url":"https:\/\/collection.cooperhewitt.org\/types\/51866563\/",
      "name":"Stationary"
    },
    {
      "id":"51865635",
      "url":"https:\/\/collection.cooperhewitt.org\/types\/51865635\/",
      "name":"Border for table mat"
    },
    {
      "id":"51689329",
      "url":"https:\/\/collection.cooperhewitt.org\/types\/51689329\/",
      "name":"Digital content"
    },
    {
      "id":"51689319",
      "url":"https:\/\/collection.cooperhewitt.org\/types\/51689319\/",
      "name":"Video content"
    },
    {
      "id":"51689301",
      "url":"https:\/\/collection.cooperhewitt.org\/types\/51689301\/",
      "name":"Prosthetic hand"
    },
    {
      "id":"51689251",
      "url":"https:\/\/collection.cooperhewitt.org\/types\/51689251\/",
      "name":"Jam spoons"
    },
    {
      "id":"51688851",
      "url":"https:\/\/collection.cooperhewitt.org\/types\/51688851\/",
      "name":"Woman's headcovering"
    },
    {
      "id":"51687029",
      "url":"https:\/\/collection.cooperhewitt.org\/types\/51687029\/",
      "name":"Lappet"
    },
    {
      "id":"51685141",
      "url":"https:\/\/collection.cooperhewitt.org\/types\/51685141\/",
      "name":"Menu holder"
    },
    {
      "id":"51681073",
      "url":"https:\/\/collection.cooperhewitt.org\/types\/51681073\/",
      "name":"Concave tumbler"
    },
    {
      "id":"51680917",
      "url":"https:\/\/collection.cooperhewitt.org\/types\/51680917\/",
      "name":"Demitasse cup and holder"
    },
    {
      "id":"51680831",
      "url":"https:\/\/collection.cooperhewitt.org\/types\/51680831\/",
      "name":"Salt or pepper shaker"
    },
    {
      "id":"51680801",
      "url":"https:\/\/collection.cooperhewitt.org\/types\/51680801\/",
      "name":"Vegetable dish and lid"
    },
    {
      "id":"51680399",
      "url":"https:\/\/collection.cooperhewitt.org\/types\/51680399\/",
      "name":"Apparel from a dalmatic"
    },
    {
      "id":"51679739",
      "url":"https:\/\/collection.cooperhewitt.org\/types\/51679739\/",
      "name":"Balance cock \/ coque de montre"
    },
    {
      "id":"51588879",
      "url":"https:\/\/collection.cooperhewitt.org\/types\/51588879\/",
      "name":"Birdhouse model"
    },
    {
      "id":"51588075",
      "url":"https:\/\/collection.cooperhewitt.org\/types\/51588075\/",
      "name":"Perpetual calendar"
    },
    {
      "id":"51587741",
      "url":"https:\/\/collection.cooperhewitt.org\/types\/51587741\/",
      "name":"Typewriter and Case"
    },
    {
      "id":"51587723",
      "url":"https:\/\/collection.cooperhewitt.org\/types\/51587723\/",
      "name":"Salt stand"
    },
    {
      "id":"51587717",
      "url":"https:\/\/collection.cooperhewitt.org\/types\/51587717\/",
      "name":"Scent flask and cap"
    },
    {
      "id":"51587663",
      "url":"https:\/\/collection.cooperhewitt.org\/types\/51587663\/",
      "name":"Ice bucket and lid"
    },
    {
      "id":"51587551",
      "url":"https:\/\/collection.cooperhewitt.org\/types\/51587551\/",
      "name":"Inkwell and stand"
    },
    {
      "id":"51587539",
      "url":"https:\/\/collection.cooperhewitt.org\/types\/51587539\/",
      "name":"Alarm clock"
    },
    {
      "id":"51587531",
      "url":"https:\/\/collection.cooperhewitt.org\/types\/51587531\/",
      "name":"Cocktail shaker with lid"
    },
    {
      "id":"51587467",
      "url":"https:\/\/collection.cooperhewitt.org\/types\/51587467\/",
      "name":"Pair of stacking side chairs"
    },
    {
      "id":"51586277",
      "url":"https:\/\/collection.cooperhewitt.org\/types\/51586277\/",
      "name":"Pair of salvers"
    },
    {
      "id":"51586205",
      "url":"https:\/\/collection.cooperhewitt.org\/types\/51586205\/",
      "name":"Frame and photograph"
    },
    {
      "id":"51586203",
      "url":"https:\/\/collection.cooperhewitt.org\/types\/51586203\/",
      "name":"Platter and stand"
    },
    {
      "id":"51586197",
      "url":"https:\/\/collection.cooperhewitt.org\/types\/51586197\/",
      "name":"Custard cup, lid, and saucer"
    },
    {
      "id":"51586145",
      "url":"https:\/\/collection.cooperhewitt.org\/types\/51586145\/",
      "name":"Jug and lid"
    },
    {
      "id":"51585153",
      "url":"https:\/\/collection.cooperhewitt.org\/types\/51585153\/",
      "name":"Tea caddy and lid"
    },
    {
      "id":"51585143",
      "url":"https:\/\/collection.cooperhewitt.org\/types\/51585143\/",
      "name":"Sleeve flounce"
    },
    {
      "id":"51585137",
      "url":"https:\/\/collection.cooperhewitt.org\/types\/51585137\/",
      "name":"Candlestick and drip pan"
    },
    {
      "id":"51585117",
      "url":"https:\/\/collection.cooperhewitt.org\/types\/51585117\/",
      "name":"Tureen and lid"
    },
    {
      "id":"51585073",
      "url":"https:\/\/collection.cooperhewitt.org\/types\/51585073\/",
      "name":"Sauce Boat with Lid and Tray"
    },
    {
      "id":"51496871",
      "url":"https:\/\/collection.cooperhewitt.org\/types\/51496871\/",
      "name":"Fireplace mantles"
    },
    {
      "id":"51496735",
      "url":"https:\/\/collection.cooperhewitt.org\/types\/51496735\/",
      "name":"Plaque with frame"
    },
    {
      "id":"35520595",
      "url":"https:\/\/collection.cooperhewitt.org\/types\/35520595\/",
      "name":"Jewelry suite"
    },
    {
      "id":"35520497",
      "url":"https:\/\/collection.cooperhewitt.org\/types\/35520497\/",
      "name":"Throwing knife"
    },
    {
      "id":"35519209",
      "url":"https:\/\/collection.cooperhewitt.org\/types\/35519209\/",
      "name":"Long sarong (kain panjang)"
    },
    {
      "id":"35460851",
      "url":"https:\/\/collection.cooperhewitt.org\/types\/35460851\/",
      "name":"Digital animation"
    },
    {
      "id":"35460823",
      "url":"https:\/\/collection.cooperhewitt.org\/types\/35460823\/",
      "name":"iPod watch conversion kit"
    },
    {
      "id":"35460179",
      "url":"https:\/\/collection.cooperhewitt.org\/types\/35460179\/",
      "name":"Satellite"
    },
    {
      "id":"35460151",
      "url":"https:\/\/collection.cooperhewitt.org\/types\/35460151\/",
      "name":"Hand axe"
    },
    {
      "id":"35459951",
      "url":"https:\/\/collection.cooperhewitt.org\/types\/35459951\/",
      "name":"Lace pattern with lace attached"
    },
    {
      "id":"35459905",
      "url":"https:\/\/collection.cooperhewitt.org\/types\/35459905\/",
      "name":"Wood engraving. Vignette"
    },
    {
      "id":"35459893",
      "url":"https:\/\/collection.cooperhewitt.org\/types\/35459893\/",
      "name":"Wood engraving, vignette"
    },
    {
      "id":"35459879",
      "url":"https:\/\/collection.cooperhewitt.org\/types\/35459879\/",
      "name":"Chocolate pot and cover"
    },
    {
      "id":"35459877",
      "url":"https:\/\/collection.cooperhewitt.org\/types\/35459877\/",
      "name":"Figure of a dog"
    },
    {
      "id":"35459875",
      "url":"https:\/\/collection.cooperhewitt.org\/types\/35459875\/",
      "name":"Chocolate cup and saucer"
    },
    {
      "id":"35308515",
      "url":"https:\/\/collection.cooperhewitt.org\/types\/35308515\/",
      "name":"Coffee Set"
    },
    {
      "id":"35308509",
      "url":"https:\/\/collection.cooperhewitt.org\/types\/35308509\/",
      "name":"Task lamp"
    },
    {
      "id":"35308489",
      "url":"https:\/\/collection.cooperhewitt.org\/types\/35308489\/",
      "name":"Tablet computer cover"
    },
    {
      "id":"35308479",
      "url":"https:\/\/collection.cooperhewitt.org\/types\/35308479\/",
      "name":"Tablet computer"
    },
    {
      "id":"35308463",
      "url":"https:\/\/collection.cooperhewitt.org\/types\/35308463\/",
      "name":"Kimono fabric"
    },
    {
      "id":"35308091",
      "url":"https:\/\/collection.cooperhewitt.org\/types\/35308091\/",
      "name":"Balcony grille"
    },
    {
      "id":"35307839",
      "url":"https:\/\/collection.cooperhewitt.org\/types\/35307839\/",
      "name":"Cover sheet"
    },
    {
      "id":"35307497",
      "url":"https:\/\/collection.cooperhewitt.org\/types\/35307497\/",
      "name":"stool model"
    },
    {
      "id":"35307295",
      "url":"https:\/\/collection.cooperhewitt.org\/types\/35307295\/",
      "name":"Dimmer switch"
    },
    {
      "id":"35307293",
      "url":"https:\/\/collection.cooperhewitt.org\/types\/35307293\/",
      "name":"Champagne tumbler"
    },
    {
      "id":"35306899",
      "url":"https:\/\/collection.cooperhewitt.org\/types\/35306899\/",
      "name":"Shape study"
    },
    {
      "id":"35306767",
      "url":"https:\/\/collection.cooperhewitt.org\/types\/35306767\/",
      "name":"Shot glass"
    },
    {
      "id":"35306591",
      "url":"https:\/\/collection.cooperhewitt.org\/types\/35306591\/",
      "name":"Electronic reading device"
    },
    {
      "id":"35306005",
      "url":"https:\/\/collection.cooperhewitt.org\/types\/35306005\/",
      "name":"Sorbet cup"
    },
    {
      "id":"35305963",
      "url":"https:\/\/collection.cooperhewitt.org\/types\/35305963\/",
      "name":"Wine pitcher with stopper"
    },
    {
      "id":"35305743",
      "url":"https:\/\/collection.cooperhewitt.org\/types\/35305743\/",
      "name":"Publication"
    },
    {
      "id":"35305733",
      "url":"https:\/\/collection.cooperhewitt.org\/types\/35305733\/",
      "name":"War rug"
    },
    {
      "id":"35305725",
      "url":"https:\/\/collection.cooperhewitt.org\/types\/35305725\/",
      "name":"Pitcher prototype"
    },
    {
      "id":"35305295",
      "url":"https:\/\/collection.cooperhewitt.org\/types\/35305295\/",
      "name":"Fork model"
    },
    {
      "id":"35305289",
      "url":"https:\/\/collection.cooperhewitt.org\/types\/35305289\/",
      "name":"Knife top"
    },
    {
      "id":"35305257",
      "url":"https:\/\/collection.cooperhewitt.org\/types\/35305257\/",
      "name":"Steak Knife Box"
    },
    {
      "id":"35305247",
      "url":"https:\/\/collection.cooperhewitt.org\/types\/35305247\/",
      "name":"Palisander Packaging"
    },
    {
      "id":"35305237",
      "url":"https:\/\/collection.cooperhewitt.org\/types\/35305237\/",
      "name":"Design 1 Packaging"
    },
    {
      "id":"35305231",
      "url":"https:\/\/collection.cooperhewitt.org\/types\/35305231\/",
      "name":"Model of Hand"
    },
    {
      "id":"35305217",
      "url":"https:\/\/collection.cooperhewitt.org\/types\/35305217\/",
      "name":"Chair prototype"
    },
    {
      "id":"35305215",
      "url":"https:\/\/collection.cooperhewitt.org\/types\/35305215\/",
      "name":"Model for Chair"
    },
    {
      "id":"35305213",
      "url":"https:\/\/collection.cooperhewitt.org\/types\/35305213\/",
      "name":"Lincoln Center Philharmonic chair"
    },
    {
      "id":"35305199",
      "url":"https:\/\/collection.cooperhewitt.org\/types\/35305199\/",
      "name":"Coasters and holder"
    },
    {
      "id":"35305185",
      "url":"https:\/\/collection.cooperhewitt.org\/types\/35305185\/",
      "name":"Part of a Model for a Plate"
    },
    {
      "id":"35305151",
      "url":"https:\/\/collection.cooperhewitt.org\/types\/35305151\/",
      "name":"vessel with lid"
    },
    {
      "id":"35305139",
      "url":"https:\/\/collection.cooperhewitt.org\/types\/35305139\/",
      "name":"Fork - mold"
    },
    {
      "id":"35305133",
      "url":"https:\/\/collection.cooperhewitt.org\/types\/35305133\/",
      "name":"Wood Box"
    },
    {
      "id":"35305123",
      "url":"https:\/\/collection.cooperhewitt.org\/types\/35305123\/",
      "name":"Model for unidentified Salad Fork"
    },
    {
      "id":"35305115",
      "url":"https:\/\/collection.cooperhewitt.org\/types\/35305115\/",
      "name":"Prototype for Fork"
    },
    {
      "id":"35305085",
      "url":"https:\/\/collection.cooperhewitt.org\/types\/35305085\/",
      "name":"Sports Knife"
    },
    {
      "id":"35305067",
      "url":"https:\/\/collection.cooperhewitt.org\/types\/35305067\/",
      "name":"Prototype for Cheese Knife"
    },
    {
      "id":"35305059",
      "url":"https:\/\/collection.cooperhewitt.org\/types\/35305059\/",
      "name":"Sharpening Steel"
    },
    {
      "id":"35305051",
      "url":"https:\/\/collection.cooperhewitt.org\/types\/35305051\/",
      "name":"8\" Carving Knife"
    },
    {
      "id":"35305039",
      "url":"https:\/\/collection.cooperhewitt.org\/types\/35305039\/",
      "name":"Bread Knife"
    },
    {
      "id":"35305021",
      "url":"https:\/\/collection.cooperhewitt.org\/types\/35305021\/",
      "name":"Model for Steak Knife"
    },
    {
      "id":"35305009",
      "url":"https:\/\/collection.cooperhewitt.org\/types\/35305009\/",
      "name":"3 in 1 Bar Tool"
    },
    {
      "id":"35304969",
      "url":"https:\/\/collection.cooperhewitt.org\/types\/35304969\/",
      "name":"Small fork"
    },
    {
      "id":"35304947",
      "url":"https:\/\/collection.cooperhewitt.org\/types\/35304947\/",
      "name":"Large serving or salad fork"
    },
    {
      "id":"35304945",
      "url":"https:\/\/collection.cooperhewitt.org\/types\/35304945\/",
      "name":"Salad or serving fork"
    },
    {
      "id":"35304941",
      "url":"https:\/\/collection.cooperhewitt.org\/types\/35304941\/",
      "name":"Serving or salad fork"
    },
    {
      "id":"35304905",
      "url":"https:\/\/collection.cooperhewitt.org\/types\/35304905\/",
      "name":"Dinner knife- mold"
    },
    {
      "id":"35304899",
      "url":"https:\/\/collection.cooperhewitt.org\/types\/35304899\/",
      "name":"Dinner fork- mold"
    },
    {
      "id":"35304883",
      "url":"https:\/\/collection.cooperhewitt.org\/types\/35304883\/",
      "name":"Regular serving spoon"
    },
    {
      "id":"35304871",
      "url":"https:\/\/collection.cooperhewitt.org\/types\/35304871\/",
      "name":"Model for spoon"
    },
    {
      "id":"35304167",
      "url":"https:\/\/collection.cooperhewitt.org\/types\/35304167\/",
      "name":"Tie-back"
    },
    {
      "id":"35304155",
      "url":"https:\/\/collection.cooperhewitt.org\/types\/35304155\/",
      "name":"Salt cellar"
    },
    {
      "id":"35303819",
      "url":"https:\/\/collection.cooperhewitt.org\/types\/35303819\/",
      "name":"Tea bowl and saucer\nTea bowl and saucer"
    },
    {
      "id":"35303459",
      "url":"https:\/\/collection.cooperhewitt.org\/types\/35303459\/",
      "name":"Molded production unit"
    },
    {
      "id":"35303435",
      "url":"https:\/\/collection.cooperhewitt.org\/types\/35303435\/",
      "name":"Knife case"
    },
    {
      "id":"35302103",
      "url":"https:\/\/collection.cooperhewitt.org\/types\/35302103\/",
      "name":"Evening Dress"
    },
    {
      "id":"35302079",
      "url":"https:\/\/collection.cooperhewitt.org\/types\/35302079\/",
      "name":"Ceiling corner border"
    },
    {
      "id":"35302011",
      "url":"https:\/\/collection.cooperhewitt.org\/types\/35302011\/",
      "name":"Promotional Card"
    },
    {
      "id":"35301247",
      "url":"https:\/\/collection.cooperhewitt.org\/types\/35301247\/",
      "name":"Sugar bowl and spoon"
    },
    {
      "id":"35301163",
      "url":"https:\/\/collection.cooperhewitt.org\/types\/35301163\/",
      "name":"Contact paper"
    },
    {
      "id":"35300647",
      "url":"https:\/\/collection.cooperhewitt.org\/types\/35300647\/",
      "name":"Wallcovering"
    },
    {
      "id":"35300435",
      "url":"https:\/\/collection.cooperhewitt.org\/types\/35300435\/",
      "name":"Nut dish cover"
    },
    {
      "id":"35300433",
      "url":"https:\/\/collection.cooperhewitt.org\/types\/35300433\/",
      "name":"Bonbonniere cover"
    },
    {
      "id":"35300111",
      "url":"https:\/\/collection.cooperhewitt.org\/types\/35300111\/",
      "name":"Butter dish"
    },
    {
      "id":"35300109",
      "url":"https:\/\/collection.cooperhewitt.org\/types\/35300109\/",
      "name":"Border sample"
    },
    {
      "id":"35299601",
      "url":"https:\/\/collection.cooperhewitt.org\/types\/35299601\/",
      "name":"sample panel"
    },
    {
      "id":"35299139",
      "url":"https:\/\/collection.cooperhewitt.org\/types\/35299139\/",
      "name":"Personal Computer"
    },
    {
      "id":"35298983",
      "url":"https:\/\/collection.cooperhewitt.org\/types\/35298983\/",
      "name":"Calendar page"
    },
    {
      "id":"35298695",
      "url":"https:\/\/collection.cooperhewitt.org\/types\/35298695\/",
      "name":"Handwritten Note"
    },
    {
      "id":"35298569",
      "url":"https:\/\/collection.cooperhewitt.org\/types\/35298569\/",
      "name":"Futon cover"
    },
    {
      "id":"35298473",
      "url":"https:\/\/collection.cooperhewitt.org\/types\/35298473\/",
      "name":"Bandeau"
    },
    {
      "id":"35298249",
      "url":"https:\/\/collection.cooperhewitt.org\/types\/35298249\/",
      "name":"Pair of Torch\u00e8res"
    },
    {
      "id":"35298245",
      "url":"https:\/\/collection.cooperhewitt.org\/types\/35298245\/",
      "name":"Booklet cover sheet"
    },
    {
      "id":"35298199",
      "url":"https:\/\/collection.cooperhewitt.org\/types\/35298199\/",
      "name":"Fragment with partial chef"
    },
    {
      "id":"35298111",
      "url":"https:\/\/collection.cooperhewitt.org\/types\/35298111\/",
      "name":"Folding chair"
    },
    {
      "id":"35297833",
      "url":"https:\/\/collection.cooperhewitt.org\/types\/35297833\/",
      "name":"Chair backs"
    },
    {
      "id":"35297735",
      "url":"https:\/\/collection.cooperhewitt.org\/types\/35297735\/",
      "name":"Cachepot"
    },
    {
      "id":"35297731",
      "url":"https:\/\/collection.cooperhewitt.org\/types\/35297731\/",
      "name":"Cigarette and match holder"
    },
    {
      "id":"35297729",
      "url":"https:\/\/collection.cooperhewitt.org\/types\/35297729\/",
      "name":"canister"
    },
    {
      "id":"35297709",
      "url":"https:\/\/collection.cooperhewitt.org\/types\/35297709\/",
      "name":"Waste basket"
    },
    {
      "id":"35297697",
      "url":"https:\/\/collection.cooperhewitt.org\/types\/35297697\/",
      "name":"Pair of suspenders"
    },
    {
      "id":"35297619",
      "url":"https:\/\/collection.cooperhewitt.org\/types\/35297619\/",
      "name":"design work"
    },
    {
      "id":"35296357",
      "url":"https:\/\/collection.cooperhewitt.org\/types\/35296357\/",
      "name":"cake stand"
    },
    {
      "id":"35295789",
      "url":"https:\/\/collection.cooperhewitt.org\/types\/35295789\/",
      "name":"Seat cover"
    },
    {
      "id":"35295601",
      "url":"https:\/\/collection.cooperhewitt.org\/types\/35295601\/",
      "name":"Bottle prototype"
    },
    {
      "id":"35295595",
      "url":"https:\/\/collection.cooperhewitt.org\/types\/35295595\/",
      "name":"Teapot lid"
    },
    {
      "id":"35295587",
      "url":"https:\/\/collection.cooperhewitt.org\/types\/35295587\/",
      "name":"felt tip pen"
    },
    {
      "id":"35295573",
      "url":"https:\/\/collection.cooperhewitt.org\/types\/35295573\/",
      "name":"Datebook"
    },
    {
      "id":"35295521",
      "url":"https:\/\/collection.cooperhewitt.org\/types\/35295521\/",
      "name":"Record album sleeve"
    },
    {
      "id":"35295517",
      "url":"https:\/\/collection.cooperhewitt.org\/types\/35295517\/",
      "name":"Cake saw"
    },
    {
      "id":"35295499",
      "url":"https:\/\/collection.cooperhewitt.org\/types\/35295499\/",
      "name":"paper sample book"
    },
    {
      "id":"35295487",
      "url":"https:\/\/collection.cooperhewitt.org\/types\/35295487\/",
      "name":"Cake tong"
    },
    {
      "id":"35295459",
      "url":"https:\/\/collection.cooperhewitt.org\/types\/35295459\/",
      "name":"Figure of a Bird"
    },
    {
      "id":"35295457",
      "url":"https:\/\/collection.cooperhewitt.org\/types\/35295457\/",
      "name":"Teapot warmer"
    },
    {
      "id":"35295421",
      "url":"https:\/\/collection.cooperhewitt.org\/types\/35295421\/",
      "name":"Pen holder model"
    },
    {
      "id":"35295403",
      "url":"https:\/\/collection.cooperhewitt.org\/types\/35295403\/",
      "name":"Printer"
    },
    {
      "id":"35295393",
      "url":"https:\/\/collection.cooperhewitt.org\/types\/35295393\/",
      "name":"Mobile Telephone"
    },
    {
      "id":"35295373",
      "url":"https:\/\/collection.cooperhewitt.org\/types\/35295373\/",
      "name":"reply card"
    },
    {
      "id":"35295335",
      "url":"https:\/\/collection.cooperhewitt.org\/types\/35295335\/",
      "name":"Clip holder"
    },
    {
      "id":"35295325",
      "url":"https:\/\/collection.cooperhewitt.org\/types\/35295325\/",
      "name":"lip plug"
    },
    {
      "id":"35295307",
      "url":"https:\/\/collection.cooperhewitt.org\/types\/35295307\/",
      "name":"Book cover design"
    },
    {
      "id":"35295297",
      "url":"https:\/\/collection.cooperhewitt.org\/types\/35295297\/",
      "name":"Floor paper"
    },
    {
      "id":"35295249",
      "url":"https:\/\/collection.cooperhewitt.org\/types\/35295249\/",
      "name":"Desk organizer"
    },
    {
      "id":"35295235",
      "url":"https:\/\/collection.cooperhewitt.org\/types\/35295235\/",
      "name":"Filing system"
    },
    {
      "id":"35295223",
      "url":"https:\/\/collection.cooperhewitt.org\/types\/35295223\/",
      "name":"Binder bin"
    },
    {
      "id":"35295197",
      "url":"https:\/\/collection.cooperhewitt.org\/types\/35295197\/",
      "name":"Bicycle tool"
    },
    {
      "id":"35295145",
      "url":"https:\/\/collection.cooperhewitt.org\/types\/35295145\/",
      "name":"personal organizer"
    },
    {
      "id":"35295131",
      "url":"https:\/\/collection.cooperhewitt.org\/types\/35295131\/",
      "name":"Telephone index"
    },
    {
      "id":"35295099",
      "url":"https:\/\/collection.cooperhewitt.org\/types\/35295099\/",
      "name":"Paper knife"
    },
    {
      "id":"35295091",
      "url":"https:\/\/collection.cooperhewitt.org\/types\/35295091\/",
      "name":"Pencil cup"
    },
    {
      "id":"35295071",
      "url":"https:\/\/collection.cooperhewitt.org\/types\/35295071\/",
      "name":"Paper weight"
    },
    {
      "id":"35295053",
      "url":"https:\/\/collection.cooperhewitt.org\/types\/35295053\/",
      "name":"Eraser"
    },
    {
      "id":"35295015",
      "url":"https:\/\/collection.cooperhewitt.org\/types\/35295015\/",
      "name":"Table linen set"
    },
    {
      "id":"35295009",
      "url":"https:\/\/collection.cooperhewitt.org\/types\/35295009\/",
      "name":"letterhead stationery"
    },
    {
      "id":"35295007",
      "url":"https:\/\/collection.cooperhewitt.org\/types\/35295007\/",
      "name":"stationery card"
    },
    {
      "id":"35294871",
      "url":"https:\/\/collection.cooperhewitt.org\/types\/35294871\/",
      "name":"print\/letterhead"
    },
    {
      "id":"35294835",
      "url":"https:\/\/collection.cooperhewitt.org\/types\/35294835\/",
      "name":"report"
    },
    {
      "id":"35294833",
      "url":"https:\/\/collection.cooperhewitt.org\/types\/35294833\/",
      "name":"Price list"
    },
    {
      "id":"35294803",
      "url":"https:\/\/collection.cooperhewitt.org\/types\/35294803\/",
      "name":"pad"
    },
    {
      "id":"35294799",
      "url":"https:\/\/collection.cooperhewitt.org\/types\/35294799\/",
      "name":"matches"
    },
    {
      "id":"35294789",
      "url":"https:\/\/collection.cooperhewitt.org\/types\/35294789\/",
      "name":"Promotion"
    },
    {
      "id":"35294767",
      "url":"https:\/\/collection.cooperhewitt.org\/types\/35294767\/",
      "name":"presskit folder"
    },
    {
      "id":"35294757",
      "url":"https:\/\/collection.cooperhewitt.org\/types\/35294757\/",
      "name":"cd packaging insert"
    },
    {
      "id":"35294743",
      "url":"https:\/\/collection.cooperhewitt.org\/types\/35294743\/",
      "name":"water kettle"
    },
    {
      "id":"35294703",
      "url":"https:\/\/collection.cooperhewitt.org\/types\/35294703\/",
      "name":"carte carree"
    },
    {
      "id":"35294665",
      "url":"https:\/\/collection.cooperhewitt.org\/types\/35294665\/",
      "name":"Slotted spoon"
    },
    {
      "id":"35294663",
      "url":"https:\/\/collection.cooperhewitt.org\/types\/35294663\/",
      "name":"pie server"
    },
    {
      "id":"35294621",
      "url":"https:\/\/collection.cooperhewitt.org\/types\/35294621\/",
      "name":"Chair pads"
    },
    {
      "id":"35294611",
      "url":"https:\/\/collection.cooperhewitt.org\/types\/35294611\/",
      "name":"cut paper object"
    },
    {
      "id":"35294595",
      "url":"https:\/\/collection.cooperhewitt.org\/types\/35294595\/",
      "name":"peeler"
    },
    {
      "id":"35294569",
      "url":"https:\/\/collection.cooperhewitt.org\/types\/35294569\/",
      "name":"Belt slide"
    },
    {
      "id":"35294547",
      "url":"https:\/\/collection.cooperhewitt.org\/types\/35294547\/",
      "name":"whisk"
    },
    {
      "id":"35294545",
      "url":"https:\/\/collection.cooperhewitt.org\/types\/35294545\/",
      "name":"spatula"
    },
    {
      "id":"35294533",
      "url":"https:\/\/collection.cooperhewitt.org\/types\/35294533\/",
      "name":"Dinner spoon"
    },
    {
      "id":"35294477",
      "url":"https:\/\/collection.cooperhewitt.org\/types\/35294477\/",
      "name":"pitcher and lid"
    },
    {
      "id":"35294461",
      "url":"https:\/\/collection.cooperhewitt.org\/types\/35294461\/",
      "name":"Swivel chair"
    },
    {
      "id":"35294421",
      "url":"https:\/\/collection.cooperhewitt.org\/types\/35294421\/",
      "name":"Wall Clock"
    },
    {
      "id":"35294413",
      "url":"https:\/\/collection.cooperhewitt.org\/types\/35294413\/",
      "name":"Sheet samples"
    },
    {
      "id":"35294395",
      "url":"https:\/\/collection.cooperhewitt.org\/types\/35294395\/",
      "name":"ski-climbers"
    },
    {
      "id":"35294383",
      "url":"https:\/\/collection.cooperhewitt.org\/types\/35294383\/",
      "name":"expanding ice gripper"
    },
    {
      "id":"35294381",
      "url":"https:\/\/collection.cooperhewitt.org\/types\/35294381\/",
      "name":"ice grip"
    },
    {
      "id":"35294365",
      "url":"https:\/\/collection.cooperhewitt.org\/types\/35294365\/",
      "name":"watering can"
    },
    {
      "id":"35294361",
      "url":"https:\/\/collection.cooperhewitt.org\/types\/35294361\/",
      "name":"Teapot, cover, and cup"
    },
    {
      "id":"35294341",
      "url":"https:\/\/collection.cooperhewitt.org\/types\/35294341\/",
      "name":"backplate, salt caster"
    },
    {
      "id":"35294333",
      "url":"https:\/\/collection.cooperhewitt.org\/types\/35294333\/",
      "name":"Lamp, transformer"
    },
    {
      "id":"35294331",
      "url":"https:\/\/collection.cooperhewitt.org\/types\/35294331\/",
      "name":"shield, bulb"
    },
    {
      "id":"35294297",
      "url":"https:\/\/collection.cooperhewitt.org\/types\/35294297\/",
      "name":"Casserole"
    },
    {
      "id":"35294269",
      "url":"https:\/\/collection.cooperhewitt.org\/types\/35294269\/",
      "name":"chopsticks"
    },
    {
      "id":"35294249",
      "url":"https:\/\/collection.cooperhewitt.org\/types\/35294249\/",
      "name":"salt dish"
    },
    {
      "id":"35294231",
      "url":"https:\/\/collection.cooperhewitt.org\/types\/35294231\/",
      "name":"Pitcher and cover"
    },
    {
      "id":"35294207",
      "url":"https:\/\/collection.cooperhewitt.org\/types\/35294207\/",
      "name":"scale, postal"
    },
    {
      "id":"35294205",
      "url":"https:\/\/collection.cooperhewitt.org\/types\/35294205\/",
      "name":"Desk set case"
    },
    {
      "id":"35294203",
      "url":"https:\/\/collection.cooperhewitt.org\/types\/35294203\/",
      "name":"Pen and cover"
    },
    {
      "id":"35294199",
      "url":"https:\/\/collection.cooperhewitt.org\/types\/35294199\/",
      "name":"Display tray"
    },
    {
      "id":"35294167",
      "url":"https:\/\/collection.cooperhewitt.org\/types\/35294167\/",
      "name":"Knife and sheath"
    },
    {
      "id":"35294159",
      "url":"https:\/\/collection.cooperhewitt.org\/types\/35294159\/",
      "name":"knife, butter"
    },
    {
      "id":"35294155",
      "url":"https:\/\/collection.cooperhewitt.org\/types\/35294155\/",
      "name":"Cutlery tray and insert"
    },
    {
      "id":"35294145",
      "url":"https:\/\/collection.cooperhewitt.org\/types\/35294145\/",
      "name":"Cream pitcher and lid"
    },
    {
      "id":"35294123",
      "url":"https:\/\/collection.cooperhewitt.org\/types\/35294123\/",
      "name":"server, salad"
    },
    {
      "id":"35294099",
      "url":"https:\/\/collection.cooperhewitt.org\/types\/35294099\/",
      "name":"Insertions"
    },
    {
      "id":"35294095",
      "url":"https:\/\/collection.cooperhewitt.org\/types\/35294095\/",
      "name":"Camera and case"
    },
    {
      "id":"35294063",
      "url":"https:\/\/collection.cooperhewitt.org\/types\/35294063\/",
      "name":"screwdriver"
    },
    {
      "id":"35294027",
      "url":"https:\/\/collection.cooperhewitt.org\/types\/35294027\/",
      "name":"Iced tea spoon"
    },
    {
      "id":"35294005",
      "url":"https:\/\/collection.cooperhewitt.org\/types\/35294005\/",
      "name":"Bowl and ladle"
    },
    {
      "id":"35293969",
      "url":"https:\/\/collection.cooperhewitt.org\/types\/35293969\/",
      "name":"Razor, electric"
    },
    {
      "id":"35293967",
      "url":"https:\/\/collection.cooperhewitt.org\/types\/35293967\/",
      "name":"Electric Razor"
    },
    {
      "id":"35293955",
      "url":"https:\/\/collection.cooperhewitt.org\/types\/35293955\/",
      "name":"Speaker"
    },
    {
      "id":"35293949",
      "url":"https:\/\/collection.cooperhewitt.org\/types\/35293949\/",
      "name":"Turntable"
    },
    {
      "id":"35293943",
      "url":"https:\/\/collection.cooperhewitt.org\/types\/35293943\/",
      "name":"paper model"
    },
    {
      "id":"35293919",
      "url":"https:\/\/collection.cooperhewitt.org\/types\/35293919\/",
      "name":"Jug and stopper"
    },
    {
      "id":"35293881",
      "url":"https:\/\/collection.cooperhewitt.org\/types\/35293881\/",
      "name":"Spoon, soup"
    },
    {
      "id":"35293849",
      "url":"https:\/\/collection.cooperhewitt.org\/types\/35293849\/",
      "name":"glass, white wine"
    },
    {
      "id":"35293769",
      "url":"https:\/\/collection.cooperhewitt.org\/types\/35293769\/",
      "name":"Frieze, crown"
    },
    {
      "id":"35293767",
      "url":"https:\/\/collection.cooperhewitt.org\/types\/35293767\/",
      "name":"Ceiling paper - sample"
    },
    {
      "id":"35293763",
      "url":"https:\/\/collection.cooperhewitt.org\/types\/35293763\/",
      "name":"tea bowl and saucer"
    },
    {
      "id":"35293753",
      "url":"https:\/\/collection.cooperhewitt.org\/types\/35293753\/",
      "name":"Folding fork and spoon bowl"
    },
    {
      "id":"35293747",
      "url":"https:\/\/collection.cooperhewitt.org\/types\/35293747\/",
      "name":"Sheath for fork and knife"
    },
    {
      "id":"35293729",
      "url":"https:\/\/collection.cooperhewitt.org\/types\/35293729\/",
      "name":"Fork handle"
    },
    {
      "id":"35293727",
      "url":"https:\/\/collection.cooperhewitt.org\/types\/35293727\/",
      "name":"knife blade"
    },
    {
      "id":"35293641",
      "url":"https:\/\/collection.cooperhewitt.org\/types\/35293641\/",
      "name":"Tweezers"
    },
    {
      "id":"35293623",
      "url":"https:\/\/collection.cooperhewitt.org\/types\/35293623\/",
      "name":"tea kettle, lamp, and cover"
    },
    {
      "id":"35293577",
      "url":"https:\/\/collection.cooperhewitt.org\/types\/35293577\/",
      "name":"print,costume"
    },
    {
      "id":"35293571",
      "url":"https:\/\/collection.cooperhewitt.org\/types\/35293571\/",
      "name":"stand, ecuelle"
    },
    {
      "id":"35293569",
      "url":"https:\/\/collection.cooperhewitt.org\/types\/35293569\/",
      "name":"Window shade pull"
    },
    {
      "id":"35293559",
      "url":"https:\/\/collection.cooperhewitt.org\/types\/35293559\/",
      "name":"Hand towel"
    },
    {
      "id":"35293481",
      "url":"https:\/\/collection.cooperhewitt.org\/types\/35293481\/",
      "name":"Spoon,dessert"
    },
    {
      "id":"35293451",
      "url":"https:\/\/collection.cooperhewitt.org\/types\/35293451\/",
      "name":"Candleholder, figural"
    },
    {
      "id":"35293443",
      "url":"https:\/\/collection.cooperhewitt.org\/types\/35293443\/",
      "name":"Pair of chambersticks with snuffers"
    },
    {
      "id":"35293395",
      "url":"https:\/\/collection.cooperhewitt.org\/types\/35293395\/",
      "name":"door, cupboard"
    },
    {
      "id":"35293389",
      "url":"https:\/\/collection.cooperhewitt.org\/types\/35293389\/",
      "name":"Menu plaque"
    },
    {
      "id":"35293381",
      "url":"https:\/\/collection.cooperhewitt.org\/types\/35293381\/",
      "name":"shaker, salt"
    },
    {
      "id":"35293377",
      "url":"https:\/\/collection.cooperhewitt.org\/types\/35293377\/",
      "name":"Divided dish"
    }
  ]
}
